EESchema Schematic File Version 2
LIBS:power
LIBS:device
LIBS:transistors
LIBS:conn
LIBS:linear
LIBS:regul
LIBS:74xx
LIBS:cmos4000
LIBS:adc-dac
LIBS:memory
LIBS:xilinx
LIBS:microcontrollers
LIBS:dsp
LIBS:microchip
LIBS:analog_switches
LIBS:motorola
LIBS:texas
LIBS:intel
LIBS:audio
LIBS:interface
LIBS:digital-audio
LIBS:philips
LIBS:display
LIBS:cypress
LIBS:siliconi
LIBS:opto
LIBS:atmel
LIBS:contrib
LIBS:valves
LIBS:metrix_parts
LIBS:mogar_KiCAD
LIBS:SparkFun
LIBS:HamShield1-cache
EELAYER 25 0
EELAYER END
$Descr A4 11693 8268
encoding utf-8
Sheet 3 4
Title "RF Power Amplifiers and Switches"
Date "2017-10-15"
Rev "1b"
Comp "Enhanced Radio Devices"
Comment1 ""
Comment2 ""
Comment3 ""
Comment4 ""
$EndDescr
$Comp
L GND-RESCUE-HAMShield04 #PWR048
U 1 1 5209258B
P 10900 3250
F 0 "#PWR048" H 10900 3250 30  0001 C CNN
F 1 "GND" H 10900 3180 30  0001 C CNN
F 2 "" H 10900 3250 60  0001 C CNN
F 3 "" H 10900 3250 60  0001 C CNN
	1    10900 3250
	1    0    0    -1  
$EndComp
Text HLabel 10500 1550 2    60   Output ~ 0
RF_IN
Text HLabel 7050 5750 1    60   Input ~ 0
RF_OUT
Connection ~ 10900 3000
Wire Wire Line
	10900 3000 10750 3000
Wire Wire Line
	10900 2800 10900 3250
Wire Wire Line
	10750 2800 10900 2800
Wire Wire Line
	10750 2900 10900 2900
Connection ~ 10900 2900
Wire Wire Line
	10750 3100 10900 3100
Connection ~ 10900 3100
$Comp
L CAP0603-CAP C19
U 1 1 53EFEEC4
P 10200 2600
F 0 "C19" H 10260 2715 50  0000 L BNN
F 1 "100p" H 10260 2515 50  0000 L BNN
F 2 "Capacitors_SMD:C_0603" H 10650 2450 50  0001 C CNN
F 3 "" H 10200 2600 60  0001 C CNN
	1    10200 2600
	0    -1   -1   0   
$EndComp
$Comp
L INDUCTOR0603 L3
U 1 1 550CAC51
P 9600 5500
F 0 "L3" V 9550 5650 50  0000 L BNN
F 1 "220n" V 9550 5250 50  0000 L BNN
F 2 "Capacitors_SMD:C_0603" H 9600 5650 50  0001 C CNN
F 3 "" H 9600 5500 60  0001 C CNN
	1    9600 5500
	0    -1   -1   0   
$EndComp
$Comp
L GND-RESCUE-HAMShield04 #PWR049
U 1 1 550CAE29
P 8700 6450
F 0 "#PWR049" H 8700 6450 30  0001 C CNN
F 1 "GND" H 8700 6380 30  0001 C CNN
F 2 "" H 8700 6450 60  0001 C CNN
F 3 "" H 8700 6450 60  0001 C CNN
	1    8700 6450
	1    0    0    -1  
$EndComp
$Comp
L VTX #VTX050
U 1 1 550CB6DD
P 10600 4900
F 0 "#VTX050" H 10600 5000 30  0001 C CNN
F 1 "VTX" H 10600 5000 30  0000 C CNN
F 2 "~" H 10600 4900 60  0000 C CNN
F 3 "~" H 10600 4900 60  0000 C CNN
	1    10600 4900
	1    0    0    -1  
$EndComp
Wire Wire Line
	9300 5500 9300 5850
Connection ~ 9300 5850
Text Label 10650 5850 2    60   ~ 0
STAGE1_OUT
Text Label 9800 2600 0    60   ~ 0
ANT
$Comp
L C-RESCUE-HAMShield04 C49
U 1 1 55D64627
P 1850 5300
F 0 "C49" H 1900 5400 50  0000 L CNN
F 1 "2.2p" H 1900 5200 50  0000 L CNN
F 2 "Capacitors_SMD:C_0402" H 1888 5150 30  0001 C CNN
F 3 "" H 1850 5300 60  0000 C CNN
	1    1850 5300
	1    0    0    -1  
$EndComp
$Comp
L INDUCTOR_SMALL L9
U 1 1 55D6462D
P 2200 4950
F 0 "L9" H 2200 5050 50  0000 C CNN
F 1 "6.2n" H 2200 4900 50  0000 C CNN
F 2 "Capacitors_SMD:C_0603" H 2200 4950 60  0001 C CNN
F 3 "" H 2200 4950 60  0000 C CNN
	1    2200 4950
	1    0    0    -1  
$EndComp
$Comp
L GND-RESCUE-HAMShield04 #PWR051
U 1 1 55D64633
P 1850 5550
F 0 "#PWR051" H 1850 5550 30  0001 C CNN
F 1 "GND" H 1850 5480 30  0001 C CNN
F 2 "" H 1850 5550 60  0001 C CNN
F 3 "" H 1850 5550 60  0001 C CNN
	1    1850 5550
	1    0    0    -1  
$EndComp
Wire Wire Line
	1850 5550 1850 5500
Connection ~ 1850 4950
$Comp
L TQP7M9105 U9
U 1 1 55D64643
P 2350 6900
F 0 "U9" H 2150 7300 60  0000 C CNN
F 1 "TQP7M9105" H 2350 7200 60  0000 C CNN
F 2 "Housings_SOT-89:SOT89-3_Housing" H 2350 6900 60  0001 C CNN
F 3 "" H 2350 6900 60  0000 C CNN
	1    2350 6900
	1    0    0    -1  
$EndComp
$Comp
L GND-RESCUE-HAMShield04 #PWR052
U 1 1 55D64650
P 2350 7350
F 0 "#PWR052" H 2350 7350 30  0001 C CNN
F 1 "GND" H 2350 7280 30  0001 C CNN
F 2 "" H 2350 7350 60  0001 C CNN
F 3 "" H 2350 7350 60  0001 C CNN
	1    2350 7350
	1    0    0    -1  
$EndComp
Wire Wire Line
	2350 7350 2350 7250
$Comp
L C-RESCUE-HAMShield04 C72
U 1 1 55D6466F
P 4100 7250
F 0 "C72" H 4150 7350 50  0000 L CNN
F 1 "14p" H 4150 7150 50  0000 L CNN
F 2 "Capacitors_SMD:C_0402" H 4138 7100 30  0001 C CNN
F 3 "" H 4100 7250 60  0000 C CNN
	1    4100 7250
	-1   0    0    -1  
$EndComp
$Comp
L INDUCTOR_SMALL L17
U 1 1 55D64675
P 3800 6900
F 0 "L17" H 3800 7000 50  0000 C CNN
F 1 "3.3n" H 3800 6850 50  0000 C CNN
F 2 "Capacitors_SMD:C_0402" H 3800 6900 60  0001 C CNN
F 3 "" H 3800 6900 60  0000 C CNN
	1    3800 6900
	-1   0    0    -1  
$EndComp
$Comp
L GND-RESCUE-HAMShield04 #PWR053
U 1 1 55D6467B
P 4100 7500
F 0 "#PWR053" H 4100 7500 30  0001 C CNN
F 1 "GND" H 4100 7430 30  0001 C CNN
F 2 "" H 4100 7500 60  0001 C CNN
F 3 "" H 4100 7500 60  0001 C CNN
	1    4100 7500
	-1   0    0    -1  
$EndComp
Wire Wire Line
	4100 7500 4100 7450
Wire Wire Line
	4100 6900 4100 7050
Connection ~ 4100 6900
$Comp
L INDUCTOR_SMALL L16
U 1 1 55D64685
P 3200 6900
F 0 "L16" H 3200 7000 50  0000 C CNN
F 1 "2n" H 3200 6850 50  0000 C CNN
F 2 "Capacitors_SMD:C_0603" H 3200 6900 60  0001 C CNN
F 3 "" H 3200 6900 60  0000 C CNN
	1    3200 6900
	-1   0    0    -1  
$EndComp
$Comp
L GND-RESCUE-HAMShield04 #PWR054
U 1 1 55D6468B
P 3500 7500
F 0 "#PWR054" H 3500 7500 30  0001 C CNN
F 1 "GND" H 3500 7430 30  0001 C CNN
F 2 "" H 3500 7500 60  0001 C CNN
F 3 "" H 3500 7500 60  0001 C CNN
	1    3500 7500
	-1   0    0    -1  
$EndComp
Wire Wire Line
	3500 7500 3500 7450
Wire Wire Line
	3500 6900 3500 7050
Connection ~ 3500 6900
$Comp
L INDUCTOR0603 L15
U 1 1 55D646A2
P 2900 6500
F 0 "L15" H 3000 6700 50  0000 L BNN
F 1 "100n" H 3000 6300 50  0000 L BNN
F 2 "mogar_modules_new:L_1008" H 2900 6650 50  0001 C CNN
F 3 "" H 2900 6500 60  0001 C CNN
	1    2900 6500
	1    0    0    1   
$EndComp
Wire Wire Line
	2900 6200 2900 6050
Connection ~ 2900 6050
Wire Wire Line
	2650 5950 2650 6050
Wire Wire Line
	2900 6800 2900 6900
Connection ~ 2900 6900
$Comp
L C-RESCUE-HAMShield04 C69
U 1 1 55D646DD
P 3500 7250
F 0 "C69" H 3550 7350 50  0000 L CNN
F 1 "15p" H 3550 7150 50  0000 L CNN
F 2 "Capacitors_SMD:C_0402" H 3538 7100 30  0001 C CNN
F 3 "" H 3500 7250 60  0000 C CNN
	1    3500 7250
	-1   0    0    -1  
$EndComp
Wire Bus Line
	7000 850  7000 6300
Text Label 4100 850  3    60   ~ 0
70cm_IN
Text Label 4100 2800 3    60   ~ 0
2m_IN
Text Label 900  850  3    60   ~ 0
1.2m_IN
Text Label 6600 750  3    60   ~ 0
70cm_OUT
Text Label 6600 2750 3    60   ~ 0
2m_OUT
Text Label 3400 700  3    60   ~ 0
1.2m_OUT
$Comp
L GND-RESCUE-HAMShield04 #PWR055
U 1 1 55F5FF29
P 7850 1100
F 0 "#PWR055" H 7850 1100 30  0001 C CNN
F 1 "GND" H 7850 1030 30  0001 C CNN
F 2 "" H 7850 1100 60  0001 C CNN
F 3 "" H 7850 1100 60  0001 C CNN
	1    7850 1100
	1    0    0    -1  
$EndComp
Wire Wire Line
	7850 1100 7850 750 
Wire Wire Line
	7850 750  8400 750 
Wire Wire Line
	8400 750  8400 1150
Wire Wire Line
	8150 1150 8150 750 
Connection ~ 8150 750 
$Comp
L GND-RESCUE-HAMShield04 #PWR056
U 1 1 55F600ED
P 9150 1100
F 0 "#PWR056" H 9150 1100 30  0001 C CNN
F 1 "GND" H 9150 1030 30  0001 C CNN
F 2 "" H 9150 1100 60  0001 C CNN
F 3 "" H 9150 1100 60  0001 C CNN
	1    9150 1100
	1    0    0    -1  
$EndComp
Wire Wire Line
	8950 1150 8950 750 
Wire Wire Line
	8950 750  9150 750 
Wire Wire Line
	9150 750  9150 1100
Wire Wire Line
	8700 1150 8700 750 
Text Label 8700 750  3    60   ~ 0
ANT
Wire Wire Line
	9450 1550 9750 1550
Wire Wire Line
	9450 1800 9900 1800
Text Label 9900 1800 2    60   ~ 0
2m_OUT
Text Label 7100 1800 0    60   ~ 0
1.2m_OUT
Wire Wire Line
	7100 1800 7650 1800
Text Label 7100 1550 0    60   ~ 0
70cm_OUT
Wire Wire Line
	7100 1550 7650 1550
$Comp
L GND-RESCUE-HAMShield04 #PWR057
U 1 1 55F613CC
P 9650 2200
F 0 "#PWR057" H 9650 2200 30  0001 C CNN
F 1 "GND" H 9650 2130 30  0001 C CNN
F 2 "" H 9650 2200 60  0001 C CNN
F 3 "" H 9650 2200 60  0001 C CNN
	1    9650 2200
	1    0    0    -1  
$EndComp
Wire Wire Line
	9450 2050 9650 2050
Wire Wire Line
	9650 2050 9650 2200
$Comp
L CAP0603-CAP C31
U 1 1 55F63227
P 7500 2350
F 0 "C31" H 7560 2465 50  0000 L BNN
F 1 "0u1" H 7560 2265 50  0000 L BNN
F 2 "Capacitors_SMD:C_0402" H 7950 2200 50  0001 C CNN
F 3 "" H 7500 2350 60  0001 C CNN
	1    7500 2350
	1    0    0    -1  
$EndComp
$Comp
L GND-RESCUE-HAMShield04 #PWR058
U 1 1 55F6343F
P 7500 2550
F 0 "#PWR058" H 7500 2550 30  0001 C CNN
F 1 "GND" H 7500 2480 30  0001 C CNN
F 2 "" H 7500 2550 60  0001 C CNN
F 3 "" H 7500 2550 60  0001 C CNN
	1    7500 2550
	1    0    0    -1  
$EndComp
Wire Wire Line
	7500 2550 7500 2450
Wire Wire Line
	7350 2050 7650 2050
Wire Wire Line
	7500 2050 7500 2150
$Comp
L +5V #PWR059
U 1 1 55F635ED
P 7350 2000
F 0 "#PWR059" H 7350 2090 20  0001 C CNN
F 1 "+5V" H 7350 2090 30  0000 C CNN
F 2 "" H 7350 2000 60  0000 C CNN
F 3 "" H 7350 2000 60  0000 C CNN
	1    7350 2000
	1    0    0    -1  
$EndComp
Wire Wire Line
	7350 2000 7350 2050
Connection ~ 7500 2050
$Comp
L GND-RESCUE-HAMShield04 #PWR060
U 1 1 55F64645
P 7850 3400
F 0 "#PWR060" H 7850 3400 30  0001 C CNN
F 1 "GND" H 7850 3330 30  0001 C CNN
F 2 "" H 7850 3400 60  0001 C CNN
F 3 "" H 7850 3400 60  0001 C CNN
	1    7850 3400
	1    0    0    -1  
$EndComp
Wire Wire Line
	7850 3400 7850 3050
Wire Wire Line
	7850 3050 8400 3050
Wire Wire Line
	8400 3050 8400 3450
Wire Wire Line
	8150 3450 8150 3050
$Comp
L GND-RESCUE-HAMShield04 #PWR061
U 1 1 55F64650
P 9150 3400
F 0 "#PWR061" H 9150 3400 30  0001 C CNN
F 1 "GND" H 9150 3330 30  0001 C CNN
F 2 "" H 9150 3400 60  0001 C CNN
F 3 "" H 9150 3400 60  0001 C CNN
	1    9150 3400
	1    0    0    -1  
$EndComp
Wire Wire Line
	8950 3450 8950 3050
Wire Wire Line
	8950 3050 9150 3050
Wire Wire Line
	9150 3050 9150 3400
Wire Wire Line
	8700 2850 8700 3450
Wire Wire Line
	7650 4100 7200 4100
Text Label 7200 4100 0    60   ~ 0
2m_IN
Text Label 10000 4100 2    60   ~ 0
1.2m_IN
Wire Wire Line
	10000 4100 9450 4100
Text Label 10000 3850 2    60   ~ 0
70cm_IN
Wire Wire Line
	10000 3850 9450 3850
$Comp
L GND-RESCUE-HAMShield04 #PWR062
U 1 1 55F64662
P 9650 4500
F 0 "#PWR062" H 9650 4500 30  0001 C CNN
F 1 "GND" H 9650 4430 30  0001 C CNN
F 2 "" H 9650 4500 60  0001 C CNN
F 3 "" H 9650 4500 60  0001 C CNN
	1    9650 4500
	1    0    0    -1  
$EndComp
Wire Wire Line
	9450 4350 9650 4350
Wire Wire Line
	9650 4350 9650 4500
$Comp
L CAP0603-CAP C35
U 1 1 55F6466A
P 7500 4650
F 0 "C35" H 7560 4765 50  0000 L BNN
F 1 "0u1" H 7560 4565 50  0000 L BNN
F 2 "Capacitors_SMD:C_0402" H 7950 4500 50  0001 C CNN
F 3 "" H 7500 4650 60  0001 C CNN
	1    7500 4650
	1    0    0    -1  
$EndComp
$Comp
L GND-RESCUE-HAMShield04 #PWR063
U 1 1 55F64670
P 7500 4850
F 0 "#PWR063" H 7500 4850 30  0001 C CNN
F 1 "GND" H 7500 4780 30  0001 C CNN
F 2 "" H 7500 4850 60  0001 C CNN
F 3 "" H 7500 4850 60  0001 C CNN
	1    7500 4850
	1    0    0    -1  
$EndComp
Wire Wire Line
	7500 4850 7500 4750
Wire Wire Line
	7350 4350 7650 4350
Wire Wire Line
	7500 4350 7500 4450
$Comp
L +5V #PWR064
U 1 1 55F64679
P 7350 4300
F 0 "#PWR064" H 7350 4390 20  0001 C CNN
F 1 "+5V" H 7350 4390 30  0000 C CNN
F 2 "" H 7350 4300 60  0000 C CNN
F 3 "" H 7350 4300 60  0000 C CNN
	1    7350 4300
	1    0    0    -1  
$EndComp
Wire Wire Line
	7350 4300 7350 4350
Connection ~ 7500 4350
Connection ~ 8150 3050
Wire Wire Line
	8050 4950 8050 5000
Wire Wire Line
	8050 5000 8300 5000
Wire Wire Line
	8300 5000 8300 4750
$Comp
L +5V #PWR065
U 1 1 55F659E7
P 7950 2500
F 0 "#PWR065" H 7950 2590 20  0001 C CNN
F 1 "+5V" H 7950 2590 30  0000 C CNN
F 2 "" H 7950 2500 60  0000 C CNN
F 3 "" H 7950 2500 60  0000 C CNN
	1    7950 2500
	1    0    0    -1  
$EndComp
Wire Wire Line
	7950 2500 7950 2650
Wire Wire Line
	7950 2650 8300 2650
Wire Wire Line
	8300 2650 8300 2450
Wire Wire Line
	8550 2450 8550 2650
Wire Wire Line
	8800 2650 8800 2450
Wire Wire Line
	8550 4750 8550 4950
Text Label 8550 4950 1    60   ~ 0
V1
Wire Wire Line
	8800 4950 8800 4750
Text Label 8800 4950 1    60   ~ 0
V2
Text HLabel 10800 3900 2    60   Input ~ 0
V1
Text HLabel 10800 3700 2    60   Input ~ 0
V2
Wire Wire Line
	10450 2600 10300 2600
Wire Wire Line
	9800 2600 10000 2600
Wire Wire Line
	900  1200 900  850 
Wire Wire Line
	4100 3150 4100 2800
Wire Wire Line
	4100 850  4100 1200
Wire Wire Line
	6600 1200 6600 750 
Wire Wire Line
	6600 2750 6600 3150
Wire Wire Line
	3400 1200 3400 700 
Wire Wire Line
	10650 5850 10000 5850
$Comp
L SKY13388 U10
U 1 1 55F6A95C
P 8550 1800
F 0 "U10" H 8550 1800 60  0000 C CNN
F 1 "SKY13388" H 8550 1700 60  0000 C CNN
F 2 "mogar_modules_new:QFN-12-2mm-x-2mm" H 8550 1800 60  0001 C CNN
F 3 "" H 8550 1800 60  0000 C CNN
	1    8550 1800
	1    0    0    -1  
$EndComp
$Comp
L SKY13388 U11
U 1 1 55F6ACCE
P 8550 4100
F 0 "U11" H 8550 4100 60  0000 C CNN
F 1 "SKY13388" H 8550 4000 60  0000 C CNN
F 2 "mogar_modules_new:QFN-12-2mm-x-2mm" H 8550 4100 60  0001 C CNN
F 3 "" H 8550 4100 60  0000 C CNN
	1    8550 4100
	1    0    0    -1  
$EndComp
Wire Wire Line
	10550 3700 10800 3700
Wire Wire Line
	10550 3900 10800 3900
Text Label 10550 3900 0    60   ~ 0
V1
Text Label 10550 3700 0    60   ~ 0
V2
Text Label 10550 4300 0    60   ~ 0
Y1
Text Label 10550 4100 0    60   ~ 0
Y2
Text Label 8800 2650 1    60   ~ 0
Y2
Text Label 8550 2650 1    60   ~ 0
Y1
Text HLabel 10800 4300 2    60   Input ~ 0
Y1
Text HLabel 10800 4100 2    60   Input ~ 0
Y2
$Comp
L C-RESCUE-HAMShield04 C62
U 1 1 55FC6833
P 5900 2050
F 0 "C62" H 5950 2150 50  0000 L CNN
F 1 "7p" H 5950 1950 50  0000 L CNN
F 2 "Capacitors_SMD:C_0402" H 5938 1900 30  0001 C CNN
F 3 "" H 5900 2050 60  0000 C CNN
	1    5900 2050
	-1   0    0    -1  
$EndComp
$Comp
L INDUCTOR_SMALL L24
U 1 1 55FC6839
P 5600 1700
F 0 "L24" H 5600 1800 50  0000 C CNN
F 1 "33n" H 5600 1650 50  0000 C CNN
F 2 "Capacitors_SMD:C_0603" H 5600 1700 60  0001 C CNN
F 3 "" H 5600 1700 60  0000 C CNN
	1    5600 1700
	-1   0    0    -1  
$EndComp
$Comp
L GND-RESCUE-HAMShield04 #PWR066
U 1 1 55FC683F
P 5900 2300
F 0 "#PWR066" H 5900 2300 30  0001 C CNN
F 1 "GND" H 5900 2230 30  0001 C CNN
F 2 "" H 5900 2300 60  0001 C CNN
F 3 "" H 5900 2300 60  0001 C CNN
	1    5900 2300
	-1   0    0    -1  
$EndComp
$Comp
L C-RESCUE-HAMShield04 C59
U 1 1 55FC6845
P 5300 2050
F 0 "C59" H 5350 2150 50  0000 L CNN
F 1 "8.2p" H 5350 1950 50  0000 L CNN
F 2 "Capacitors_SMD:C_0402" H 5338 1900 30  0001 C CNN
F 3 "" H 5300 2050 60  0000 C CNN
	1    5300 2050
	-1   0    0    -1  
$EndComp
$Comp
L GND-RESCUE-HAMShield04 #PWR067
U 1 1 55FC684B
P 5300 2300
F 0 "#PWR067" H 5300 2300 30  0001 C CNN
F 1 "GND" H 5300 2230 30  0001 C CNN
F 2 "" H 5300 2300 60  0001 C CNN
F 3 "" H 5300 2300 60  0001 C CNN
	1    5300 2300
	-1   0    0    -1  
$EndComp
Wire Wire Line
	5300 2300 5300 2250
Wire Wire Line
	5300 1700 5300 1850
Connection ~ 5300 1700
$Comp
L INDUCTOR_SMALL L21
U 1 1 55FC6855
P 5000 1700
F 0 "L21" H 5000 1800 50  0000 C CNN
F 1 "33n" H 5000 1650 50  0000 C CNN
F 2 "Capacitors_SMD:C_0603" H 5000 1700 60  0001 C CNN
F 3 "" H 5000 1700 60  0000 C CNN
	1    5000 1700
	-1   0    0    -1  
$EndComp
Wire Wire Line
	5900 1850 5900 1700
Connection ~ 5900 1700
Wire Wire Line
	5900 2250 5900 2300
$Comp
L C-RESCUE-HAMShield04 C53
U 1 1 55FC6F8F
P 4700 2050
F 0 "C53" H 4750 2150 50  0000 L CNN
F 1 "7p" H 4750 1950 50  0000 L CNN
F 2 "Capacitors_SMD:C_0402" H 4738 1900 30  0001 C CNN
F 3 "" H 4700 2050 60  0000 C CNN
	1    4700 2050
	-1   0    0    -1  
$EndComp
$Comp
L GND-RESCUE-HAMShield04 #PWR068
U 1 1 55FC6F95
P 4700 2300
F 0 "#PWR068" H 4700 2300 30  0001 C CNN
F 1 "GND" H 4700 2230 30  0001 C CNN
F 2 "" H 4700 2300 60  0001 C CNN
F 3 "" H 4700 2300 60  0001 C CNN
	1    4700 2300
	-1   0    0    -1  
$EndComp
Wire Wire Line
	4700 2300 4700 2250
Wire Wire Line
	4700 1700 4700 1850
Connection ~ 4700 1700
$Comp
L INDUCTOR_SMALL L18
U 1 1 55FC6F9E
P 4400 1700
F 0 "L18" H 4400 1800 50  0000 C CNN
F 1 "24n" H 4400 1650 50  0000 C CNN
F 2 "Capacitors_SMD:C_0603" H 4400 1700 60  0001 C CNN
F 3 "" H 4400 1700 60  0000 C CNN
	1    4400 1700
	-1   0    0    -1  
$EndComp
Wire Wire Line
	4650 1700 4750 1700
Wire Wire Line
	5250 1700 5350 1700
$Comp
L C-RESCUE-HAMShield04 C23
U 1 1 55FCC534
P 4100 1400
F 0 "C23" H 4150 1500 50  0000 L CNN
F 1 "100p" H 4150 1300 50  0000 L CNN
F 2 "Capacitors_SMD:C_0603" H 4138 1250 30  0001 C CNN
F 3 "" H 4100 1400 60  0000 C CNN
	1    4100 1400
	1    0    0    -1  
$EndComp
$Comp
L C-RESCUE-HAMShield04 C67
U 1 1 55FCC671
P 6600 1400
F 0 "C67" H 6650 1500 50  0000 L CNN
F 1 "100p" H 6650 1300 50  0000 L CNN
F 2 "Capacitors_SMD:C_0603" H 6638 1250 30  0001 C CNN
F 3 "" H 6600 1400 60  0000 C CNN
	1    6600 1400
	-1   0    0    -1  
$EndComp
Connection ~ 3300 6050
Connection ~ 3550 6050
$Comp
L C-RESCUE-HAMShield04 C30
U 1 1 55FCED7A
P 3300 6300
F 0 "C30" H 3350 6400 50  0000 L CNN
F 1 "1n" H 3350 6200 50  0000 L CNN
F 2 "Capacitors_SMD:C_0402" H 3338 6150 30  0001 C CNN
F 3 "" H 3300 6300 60  0000 C CNN
	1    3300 6300
	-1   0    0    -1  
$EndComp
$Comp
L C-RESCUE-HAMShield04 C37
U 1 1 55FCED80
P 3550 6300
F 0 "C37" H 3600 6400 50  0000 L CNN
F 1 "0u1" H 3600 6200 50  0000 L CNN
F 2 "Capacitors_SMD:C_0402" H 3588 6150 30  0001 C CNN
F 3 "" H 3550 6300 60  0000 C CNN
	1    3550 6300
	-1   0    0    -1  
$EndComp
$Comp
L C-RESCUE-HAMShield04 C51
U 1 1 55FCED86
P 3800 6300
F 0 "C51" H 3850 6400 50  0000 L CNN
F 1 "1u" H 3850 6200 50  0000 L CNN
F 2 "Capacitors_SMD:C_0402" H 3838 6150 30  0001 C CNN
F 3 "" H 3800 6300 60  0000 C CNN
	1    3800 6300
	-1   0    0    -1  
$EndComp
$Comp
L GND-RESCUE-HAMShield04 #PWR069
U 1 1 55FCED8C
P 3300 6550
F 0 "#PWR069" H 3300 6550 30  0001 C CNN
F 1 "GND" H 3300 6480 30  0001 C CNN
F 2 "" H 3300 6550 60  0001 C CNN
F 3 "" H 3300 6550 60  0001 C CNN
	1    3300 6550
	1    0    0    -1  
$EndComp
$Comp
L GND-RESCUE-HAMShield04 #PWR070
U 1 1 55FCED92
P 3550 6550
F 0 "#PWR070" H 3550 6550 30  0001 C CNN
F 1 "GND" H 3550 6480 30  0001 C CNN
F 2 "" H 3550 6550 60  0001 C CNN
F 3 "" H 3550 6550 60  0001 C CNN
	1    3550 6550
	1    0    0    -1  
$EndComp
Wire Wire Line
	3550 6550 3550 6500
Wire Wire Line
	3300 6550 3300 6500
$Comp
L GND-RESCUE-HAMShield04 #PWR071
U 1 1 55FCED9A
P 3800 6550
F 0 "#PWR071" H 3800 6550 30  0001 C CNN
F 1 "GND" H 3800 6480 30  0001 C CNN
F 2 "" H 3800 6550 60  0001 C CNN
F 3 "" H 3800 6550 60  0001 C CNN
	1    3800 6550
	1    0    0    -1  
$EndComp
Wire Wire Line
	3800 6550 3800 6500
Wire Wire Line
	3300 6100 3300 6050
Wire Wire Line
	3550 6100 3550 6050
Wire Wire Line
	3800 6100 3800 6050
Wire Wire Line
	3800 6050 2650 6050
$Comp
L C-RESCUE-HAMShield04 C24
U 1 1 55FCF24F
P 900 1400
F 0 "C24" H 950 1500 50  0000 L CNN
F 1 "100p" H 950 1300 50  0000 L CNN
F 2 "Capacitors_SMD:C_0603" H 938 1250 30  0001 C CNN
F 3 "" H 900 1400 60  0000 C CNN
	1    900  1400
	1    0    0    -1  
$EndComp
$Comp
L C-RESCUE-HAMShield04 C68
U 1 1 55FCF2FB
P 3400 1400
F 0 "C68" H 3450 1500 50  0000 L CNN
F 1 "100p" H 3450 1300 50  0000 L CNN
F 2 "Capacitors_SMD:C_0603" H 3438 1250 30  0001 C CNN
F 3 "" H 3400 1400 60  0000 C CNN
	1    3400 1400
	-1   0    0    -1  
$EndComp
$Comp
L C-RESCUE-HAMShield04 C70
U 1 1 55FCF620
P 6600 3350
F 0 "C70" H 6650 3450 50  0000 L CNN
F 1 "100p" H 6650 3250 50  0000 L CNN
F 2 "Capacitors_SMD:C_0603" H 6638 3200 30  0001 C CNN
F 3 "" H 6600 3350 60  0000 C CNN
	1    6600 3350
	1    0    0    -1  
$EndComp
$Comp
L C-RESCUE-HAMShield04 C25
U 1 1 55FCF992
P 4100 3350
F 0 "C25" H 4150 3450 50  0000 L CNN
F 1 "100p" H 4150 3250 50  0000 L CNN
F 2 "Capacitors_SMD:C_0603" H 4138 3200 30  0001 C CNN
F 3 "" H 4100 3350 60  0000 C CNN
	1    4100 3350
	1    0    0    -1  
$EndComp
Wire Wire Line
	3550 6900 3450 6900
Wire Wire Line
	2950 6900 2850 6900
Wire Wire Line
	1500 6900 1850 6900
Wire Wire Line
	1250 4950 1950 4950
$Comp
L C-RESCUE-HAMShield04 C71
U 1 1 55FD279E
P 7850 5850
F 0 "C71" H 7900 5950 50  0000 L CNN
F 1 "100p" H 7900 5750 50  0000 L CNN
F 2 "Capacitors_SMD:C_0603" H 7888 5700 30  0001 C CNN
F 3 "" H 7850 5850 60  0000 C CNN
	1    7850 5850
	0    1    1    0   
$EndComp
$Comp
L C-RESCUE-HAMShield04 C73
U 1 1 55FD28C6
P 9800 5850
F 0 "C73" H 9850 5950 50  0000 L CNN
F 1 "100p" H 9850 5750 50  0000 L CNN
F 2 "Capacitors_SMD:C_0603" H 9838 5700 30  0001 C CNN
F 3 "" H 9800 5850 60  0000 C CNN
	1    9800 5850
	0    1    1    0   
$EndComp
$Comp
L C-RESCUE-HAMShield04 C75
U 1 1 55FD2BB9
P 10000 5200
F 0 "C75" H 10050 5300 50  0000 L CNN
F 1 "0u1" H 10050 5100 50  0000 L CNN
F 2 "Capacitors_SMD:C_0402" H 10038 5050 30  0001 C CNN
F 3 "" H 10000 5200 60  0000 C CNN
	1    10000 5200
	-1   0    0    1   
$EndComp
$Comp
L GND-RESCUE-HAMShield04 #PWR072
U 1 1 55FD2BCB
P 10150 5000
F 0 "#PWR072" H 10150 5000 30  0001 C CNN
F 1 "GND" H 10150 4930 30  0001 C CNN
F 2 "" H 10150 5000 60  0001 C CNN
F 3 "" H 10150 5000 60  0001 C CNN
	1    10150 5000
	-1   0    0    -1  
$EndComp
Wire Wire Line
	10000 4950 10000 5000
Wire Wire Line
	9600 5850 9200 5850
Wire Wire Line
	10800 4100 10550 4100
Wire Wire Line
	10800 4300 10550 4300
$Comp
L INDUCTOR_SMALL L27
U 1 1 55FD8389
P 6200 1700
F 0 "L27" H 6200 1800 50  0000 C CNN
F 1 "24n" H 6200 1650 50  0000 C CNN
F 2 "Capacitors_SMD:C_0603" H 6200 1700 60  0001 C CNN
F 3 "" H 6200 1700 60  0000 C CNN
	1    6200 1700
	-1   0    0    -1  
$EndComp
Wire Wire Line
	5850 1700 5950 1700
$Comp
L C-RESCUE-HAMShield04 C63
U 1 1 55FD8ADD
P 2700 2050
F 0 "C63" H 2750 2150 50  0000 L CNN
F 1 "14p" H 2750 1950 50  0000 L CNN
F 2 "Capacitors_SMD:C_0402" H 2738 1900 30  0001 C CNN
F 3 "" H 2700 2050 60  0000 C CNN
	1    2700 2050
	-1   0    0    -1  
$EndComp
$Comp
L INDUCTOR_SMALL L25
U 1 1 55FD8AE3
P 2400 1700
F 0 "L25" H 2400 1800 50  0000 C CNN
F 1 "75n" H 2400 1650 50  0000 C CNN
F 2 "Capacitors_SMD:C_0402" H 2400 1700 60  0001 C CNN
F 3 "" H 2400 1700 60  0000 C CNN
	1    2400 1700
	-1   0    0    -1  
$EndComp
$Comp
L GND-RESCUE-HAMShield04 #PWR073
U 1 1 55FD8AE9
P 2700 2300
F 0 "#PWR073" H 2700 2300 30  0001 C CNN
F 1 "GND" H 2700 2230 30  0001 C CNN
F 2 "" H 2700 2300 60  0001 C CNN
F 3 "" H 2700 2300 60  0001 C CNN
	1    2700 2300
	-1   0    0    -1  
$EndComp
$Comp
L C-RESCUE-HAMShield04 C60
U 1 1 55FD8AEF
P 2100 2050
F 0 "C60" H 2150 2150 50  0000 L CNN
F 1 "15p" H 2150 1950 50  0000 L CNN
F 2 "Capacitors_SMD:C_0402" H 2138 1900 30  0001 C CNN
F 3 "" H 2100 2050 60  0000 C CNN
	1    2100 2050
	-1   0    0    -1  
$EndComp
$Comp
L GND-RESCUE-HAMShield04 #PWR074
U 1 1 55FD8AF5
P 2100 2300
F 0 "#PWR074" H 2100 2300 30  0001 C CNN
F 1 "GND" H 2100 2230 30  0001 C CNN
F 2 "" H 2100 2300 60  0001 C CNN
F 3 "" H 2100 2300 60  0001 C CNN
	1    2100 2300
	-1   0    0    -1  
$EndComp
Wire Wire Line
	2100 2300 2100 2250
Wire Wire Line
	2100 1700 2100 1850
Connection ~ 2100 1700
$Comp
L INDUCTOR_SMALL L22
U 1 1 55FD8AFE
P 1800 1700
F 0 "L22" H 1800 1800 50  0000 C CNN
F 1 "75n" H 1800 1650 50  0000 C CNN
F 2 "Capacitors_SMD:C_0402" H 1800 1700 60  0001 C CNN
F 3 "" H 1800 1700 60  0000 C CNN
	1    1800 1700
	-1   0    0    -1  
$EndComp
Wire Wire Line
	2700 1850 2700 1700
Connection ~ 2700 1700
Wire Wire Line
	2700 2250 2700 2300
$Comp
L C-RESCUE-HAMShield04 C56
U 1 1 55FD8B07
P 1500 2050
F 0 "C56" H 1550 2150 50  0000 L CNN
F 1 "14p" H 1550 1950 50  0000 L CNN
F 2 "Capacitors_SMD:C_0402" H 1538 1900 30  0001 C CNN
F 3 "" H 1500 2050 60  0000 C CNN
	1    1500 2050
	-1   0    0    -1  
$EndComp
$Comp
L GND-RESCUE-HAMShield04 #PWR075
U 1 1 55FD8B0D
P 1500 2300
F 0 "#PWR075" H 1500 2300 30  0001 C CNN
F 1 "GND" H 1500 2230 30  0001 C CNN
F 2 "" H 1500 2300 60  0001 C CNN
F 3 "" H 1500 2300 60  0001 C CNN
	1    1500 2300
	-1   0    0    -1  
$EndComp
Wire Wire Line
	1500 2300 1500 2250
Wire Wire Line
	1500 1700 1500 1850
Connection ~ 1500 1700
$Comp
L INDUCTOR_SMALL L19
U 1 1 55FD8B16
P 1200 1700
F 0 "L19" H 1200 1800 50  0000 C CNN
F 1 "47n" H 1200 1650 50  0000 C CNN
F 2 "Capacitors_SMD:C_0603" H 1200 1700 60  0001 C CNN
F 3 "" H 1200 1700 60  0000 C CNN
	1    1200 1700
	-1   0    0    -1  
$EndComp
Wire Wire Line
	1450 1700 1550 1700
Wire Wire Line
	2050 1700 2150 1700
$Comp
L INDUCTOR_SMALL L28
U 1 1 55FD8B24
P 3000 1700
F 0 "L28" H 3000 1800 50  0000 C CNN
F 1 "47n" H 3000 1650 50  0000 C CNN
F 2 "Capacitors_SMD:C_0603" H 3000 1700 60  0001 C CNN
F 3 "" H 3000 1700 60  0000 C CNN
	1    3000 1700
	-1   0    0    -1  
$EndComp
Wire Wire Line
	2650 1700 2750 1700
$Comp
L C-RESCUE-HAMShield04 C66
U 1 1 55FD8F3C
P 5900 4000
F 0 "C66" H 5950 4100 50  0000 L CNN
F 1 "20p" H 5950 3900 50  0000 L CNN
F 2 "Capacitors_SMD:C_0402" H 5938 3850 30  0001 C CNN
F 3 "" H 5900 4000 60  0000 C CNN
	1    5900 4000
	-1   0    0    -1  
$EndComp
$Comp
L INDUCTOR_SMALL L26
U 1 1 55FD8F42
P 5600 3650
F 0 "L26" H 5600 3750 50  0000 C CNN
F 1 "120n" H 5600 3600 50  0000 C CNN
F 2 "Capacitors_SMD:C_0805" H 5600 3650 60  0001 C CNN
F 3 "" H 5600 3650 60  0000 C CNN
	1    5600 3650
	-1   0    0    -1  
$EndComp
$Comp
L GND-RESCUE-HAMShield04 #PWR076
U 1 1 55FD8F48
P 5900 4250
F 0 "#PWR076" H 5900 4250 30  0001 C CNN
F 1 "GND" H 5900 4180 30  0001 C CNN
F 2 "" H 5900 4250 60  0001 C CNN
F 3 "" H 5900 4250 60  0001 C CNN
	1    5900 4250
	-1   0    0    -1  
$EndComp
$Comp
L C-RESCUE-HAMShield04 C61
U 1 1 55FD8F4E
P 5300 4000
F 0 "C61" H 5350 4100 50  0000 L CNN
F 1 "24p" H 5350 3900 50  0000 L CNN
F 2 "Capacitors_SMD:C_0603" H 5338 3850 30  0001 C CNN
F 3 "" H 5300 4000 60  0000 C CNN
	1    5300 4000
	-1   0    0    -1  
$EndComp
$Comp
L GND-RESCUE-HAMShield04 #PWR077
U 1 1 55FD8F54
P 5300 4250
F 0 "#PWR077" H 5300 4250 30  0001 C CNN
F 1 "GND" H 5300 4180 30  0001 C CNN
F 2 "" H 5300 4250 60  0001 C CNN
F 3 "" H 5300 4250 60  0001 C CNN
	1    5300 4250
	-1   0    0    -1  
$EndComp
Wire Wire Line
	5300 4250 5300 4200
Wire Wire Line
	5300 3650 5300 3800
Connection ~ 5300 3650
$Comp
L INDUCTOR_SMALL L23
U 1 1 55FD8F5D
P 5000 3650
F 0 "L23" H 5000 3750 50  0000 C CNN
F 1 "120n" H 5000 3600 50  0000 C CNN
F 2 "Capacitors_SMD:C_0805" H 5000 3650 60  0001 C CNN
F 3 "" H 5000 3650 60  0000 C CNN
	1    5000 3650
	-1   0    0    -1  
$EndComp
Wire Wire Line
	5900 3800 5900 3650
Connection ~ 5900 3650
Wire Wire Line
	5900 4200 5900 4250
$Comp
L C-RESCUE-HAMShield04 C58
U 1 1 55FD8F66
P 4700 4000
F 0 "C58" H 4750 4100 50  0000 L CNN
F 1 "20p" H 4750 3900 50  0000 L CNN
F 2 "Capacitors_SMD:C_0402" H 4738 3850 30  0001 C CNN
F 3 "" H 4700 4000 60  0000 C CNN
	1    4700 4000
	-1   0    0    -1  
$EndComp
$Comp
L GND-RESCUE-HAMShield04 #PWR078
U 1 1 55FD8F6C
P 4700 4250
F 0 "#PWR078" H 4700 4250 30  0001 C CNN
F 1 "GND" H 4700 4180 30  0001 C CNN
F 2 "" H 4700 4250 60  0001 C CNN
F 3 "" H 4700 4250 60  0001 C CNN
	1    4700 4250
	-1   0    0    -1  
$EndComp
Wire Wire Line
	4700 4250 4700 4200
Wire Wire Line
	4700 3650 4700 3800
Connection ~ 4700 3650
$Comp
L INDUCTOR_SMALL L20
U 1 1 55FD8F75
P 4400 3650
F 0 "L20" H 4400 3750 50  0000 C CNN
F 1 "82n" H 4400 3600 50  0000 C CNN
F 2 "Capacitors_SMD:C_0603" H 4400 3650 60  0001 C CNN
F 3 "" H 4400 3650 60  0000 C CNN
	1    4400 3650
	-1   0    0    -1  
$EndComp
Wire Wire Line
	4650 3650 4750 3650
Wire Wire Line
	5250 3650 5350 3650
$Comp
L INDUCTOR_SMALL L29
U 1 1 55FD8F83
P 6200 3650
F 0 "L29" H 6200 3750 50  0000 C CNN
F 1 "82n" H 6200 3600 50  0000 C CNN
F 2 "Capacitors_SMD:C_0603" H 6200 3650 60  0001 C CNN
F 3 "" H 6200 3650 60  0000 C CNN
	1    6200 3650
	-1   0    0    -1  
$EndComp
Wire Wire Line
	5850 3650 5950 3650
Wire Wire Line
	4050 6900 4150 6900
Wire Wire Line
	3250 1700 3400 1700
Wire Wire Line
	3400 1700 3400 1600
Wire Wire Line
	6450 3650 6600 3650
Wire Wire Line
	6600 3650 6600 3550
Wire Wire Line
	6600 1600 6600 1700
Wire Wire Line
	6600 1700 6450 1700
$Comp
L TRF37A75 U4
U 1 1 56032073
P 8700 5850
F 0 "U4" H 8700 6150 60  0000 C CNN
F 1 "TRF37A75" H 8850 6050 60  0000 C CNN
F 2 "mogar_modules_new:DFN-8-1EP_2x2mm_Pitch0.5mm" H 8700 5850 60  0001 C CNN
F 3 "" H 8700 5850 60  0000 C CNN
	1    8700 5850
	1    0    0    -1  
$EndComp
$Comp
L C-RESCUE-HAMShield04 C74
U 1 1 56032F70
P 8800 5350
F 0 "C74" H 8850 5450 50  0000 L CNN
F 1 "0u1" H 8850 5250 50  0000 L CNN
F 2 "Capacitors_SMD:C_0402" H 8838 5200 30  0001 C CNN
F 3 "" H 8800 5350 60  0000 C CNN
	1    8800 5350
	0    -1   -1   0   
$EndComp
$Comp
L GND-RESCUE-HAMShield04 #PWR079
U 1 1 56033000
P 9100 5400
F 0 "#PWR079" H 9100 5400 30  0001 C CNN
F 1 "GND" H 9100 5330 30  0001 C CNN
F 2 "" H 9100 5400 60  0001 C CNN
F 3 "" H 9100 5400 60  0001 C CNN
	1    9100 5400
	-1   0    0    -1  
$EndComp
Wire Wire Line
	9000 5350 9100 5350
Wire Wire Line
	9100 5350 9100 5400
$Comp
L VTX #VTX080
U 1 1 5603318C
P 8550 5250
F 0 "#VTX080" H 8550 5350 30  0001 C CNN
F 1 "VTX" H 8550 5350 30  0000 C CNN
F 2 "~" H 8550 5250 60  0000 C CNN
F 3 "~" H 8550 5250 60  0000 C CNN
	1    8550 5250
	1    0    0    -1  
$EndComp
Wire Wire Line
	8550 5250 8550 5450
Wire Wire Line
	8600 5350 8550 5350
Connection ~ 8550 5350
Wire Wire Line
	10150 5000 10150 4950
Wire Wire Line
	10150 4950 10000 4950
$Comp
L C-RESCUE-HAMShield04 C76
U 1 1 560338AA
P 10750 5200
F 0 "C76" H 10800 5300 50  0000 L CNN
F 1 "0u1" H 10800 5100 50  0000 L CNN
F 2 "Capacitors_SMD:C_0402" H 10788 5050 30  0001 C CNN
F 3 "" H 10750 5200 60  0000 C CNN
	1    10750 5200
	1    0    0    -1  
$EndComp
$Comp
L GND-RESCUE-HAMShield04 #PWR081
U 1 1 56033929
P 10750 5450
F 0 "#PWR081" H 10750 5450 30  0001 C CNN
F 1 "GND" H 10750 5380 30  0001 C CNN
F 2 "" H 10750 5450 60  0001 C CNN
F 3 "" H 10750 5450 60  0001 C CNN
	1    10750 5450
	-1   0    0    -1  
$EndComp
Wire Wire Line
	10600 4900 10600 5500
Wire Wire Line
	10600 4950 10750 4950
Wire Wire Line
	10750 4950 10750 5000
Wire Wire Line
	10750 5400 10750 5450
$Comp
L RESISTOR0603-RES R?
U 1 1 56034415
P 10300 5500
AR Path="/52091E5F/56034415" Ref="R?"  Part="1" 
AR Path="/5209228F/56034415" Ref="R8"  Part="1" 
F 0 "R8" H 10150 5600 50  0000 L BNN
F 1 "1.8" H 10150 5370 50  0000 L BNN
F 2 "Resistors_SMD:R_0402" H 10550 5300 50  0001 C CNN
F 3 "~" H 10300 5500 60  0000 C CNN
	1    10300 5500
	1    0    0    -1  
$EndComp
Wire Wire Line
	10000 5400 10000 5500
Wire Wire Line
	9900 5500 10100 5500
Connection ~ 10000 5500
Wire Wire Line
	10600 5500 10500 5500
Connection ~ 10600 4950
$Comp
L +5V #PWR082
U 1 1 5605E159
P 8050 4950
F 0 "#PWR082" H 8050 5040 20  0001 C CNN
F 1 "+5V" H 8050 5040 30  0000 C CNN
F 2 "" H 8050 4950 60  0000 C CNN
F 3 "" H 8050 4950 60  0000 C CNN
	1    8050 4950
	1    0    0    -1  
$EndComp
$Comp
L C-RESCUE-HAMShield04 C77
U 1 1 560CAE32
P 9950 1550
F 0 "C77" H 10000 1650 50  0000 L CNN
F 1 "100p" H 10000 1450 50  0000 L CNN
F 2 "Capacitors_SMD:C_0603" H 9988 1400 30  0001 C CNN
F 3 "" H 9950 1550 60  0000 C CNN
	1    9950 1550
	0    1    -1   0   
$EndComp
$Comp
L INDUCTOR_SMALL L30
U 1 1 560CE758
P 9600 1150
F 0 "L30" H 9600 1250 50  0000 C CNN
F 1 "DNP" H 9600 1100 50  0000 C CNN
F 2 "Capacitors_SMD:C_0603" H 9600 1150 60  0001 C CNN
F 3 "" H 9600 1150 60  0000 C CNN
	1    9600 1150
	0    1    -1   0   
$EndComp
Wire Wire Line
	9600 1400 9600 1550
Connection ~ 9600 1550
$Comp
L INDUCTOR_SMALL L31
U 1 1 560CEC9B
P 10300 1150
F 0 "L31" H 10300 1250 50  0000 C CNN
F 1 "DNP" H 10300 1100 50  0000 C CNN
F 2 "Capacitors_SMD:C_0603" H 10300 1150 60  0001 C CNN
F 3 "" H 10300 1150 60  0000 C CNN
	1    10300 1150
	0    1    -1   0   
$EndComp
Wire Wire Line
	10300 1400 10300 1550
Wire Wire Line
	10150 1550 10500 1550
Connection ~ 10300 1550
$Comp
L GND-RESCUE-HAMShield04 #PWR083
U 1 1 560CF14A
P 9800 950
F 0 "#PWR083" H 9800 950 30  0001 C CNN
F 1 "GND" H 9800 880 30  0001 C CNN
F 2 "" H 9800 950 60  0001 C CNN
F 3 "" H 9800 950 60  0001 C CNN
	1    9800 950 
	1    0    0    -1  
$EndComp
$Comp
L GND-RESCUE-HAMShield04 #PWR084
U 1 1 560CF24E
P 10100 950
F 0 "#PWR084" H 10100 950 30  0001 C CNN
F 1 "GND" H 10100 880 30  0001 C CNN
F 2 "" H 10100 950 60  0001 C CNN
F 3 "" H 10100 950 60  0001 C CNN
	1    10100 950 
	1    0    0    -1  
$EndComp
Wire Wire Line
	9600 900  9600 800 
Wire Wire Line
	9600 800  9800 800 
Wire Wire Line
	9800 800  9800 950 
Wire Wire Line
	10300 900  10300 800 
Wire Wire Line
	10300 800  10100 800 
Wire Wire Line
	10100 800  10100 950 
$Comp
L INDUCTOR_SMALL L33
U 1 1 560CA86C
P 10300 6200
F 0 "L33" H 10300 6300 50  0000 C CNN
F 1 "DNP" H 10300 6150 50  0000 C CNN
F 2 "Capacitors_SMD:C_0603" H 10300 6200 60  0001 C CNN
F 3 "" H 10300 6200 60  0000 C CNN
	1    10300 6200
	0    1    -1   0   
$EndComp
$Comp
L GND-RESCUE-HAMShield04 #PWR085
U 1 1 560CA9E8
P 10300 6500
F 0 "#PWR085" H 10300 6500 30  0001 C CNN
F 1 "GND" H 10300 6430 30  0001 C CNN
F 2 "" H 10300 6500 60  0001 C CNN
F 3 "" H 10300 6500 60  0001 C CNN
	1    10300 6500
	1    0    0    -1  
$EndComp
Wire Wire Line
	10300 5950 10300 5850
Connection ~ 10300 5850
Wire Wire Line
	10300 6450 10300 6500
$Comp
L INDUCTOR_SMALL L32
U 1 1 560CEA13
P 9900 2950
F 0 "L32" H 9900 3050 50  0000 C CNN
F 1 "DNP" H 9900 2900 50  0000 C CNN
F 2 "Capacitors_SMD:C_0603" H 9900 2950 60  0001 C CNN
F 3 "" H 9900 2950 60  0000 C CNN
	1    9900 2950
	0    1    -1   0   
$EndComp
$Comp
L GND-RESCUE-HAMShield04 #PWR086
U 1 1 560CEC2A
P 9900 3300
F 0 "#PWR086" H 9900 3300 30  0001 C CNN
F 1 "GND" H 9900 3230 30  0001 C CNN
F 2 "" H 9900 3300 60  0001 C CNN
F 3 "" H 9900 3300 60  0001 C CNN
	1    9900 3300
	1    0    0    -1  
$EndComp
Wire Wire Line
	9900 3300 9900 3200
Wire Wire Line
	9900 2700 9900 2600
Connection ~ 9900 2600
$Comp
L RESISTOR0603-RES R?
U 1 1 560D06E0
P 10350 2900
AR Path="/52091E5F/560D06E0" Ref="R?"  Part="1" 
AR Path="/5209228F/560D06E0" Ref="R9"  Part="1" 
F 0 "R9" H 10400 2750 50  0000 L BNN
F 1 "10k" H 10200 2770 50  0000 L BNN
F 2 "Resistors_SMD:R_0402" H 10600 2700 50  0001 C CNN
F 3 "~" H 10350 2900 60  0000 C CNN
	1    10350 2900
	0    1    1    0   
$EndComp
$Comp
L GND-RESCUE-HAMShield04 #PWR087
U 1 1 560D195C
P 10350 3200
F 0 "#PWR087" H 10350 3200 30  0001 C CNN
F 1 "GND" H 10350 3130 30  0001 C CNN
F 2 "" H 10350 3200 60  0001 C CNN
F 3 "" H 10350 3200 60  0001 C CNN
	1    10350 3200
	1    0    0    -1  
$EndComp
Wire Wire Line
	10350 3200 10350 3100
Wire Wire Line
	10350 2700 10350 2600
Connection ~ 10350 2600
$Comp
L SMA_EDGE J1
U 1 1 5688CD68
P 10650 2600
F 0 "J1" H 10500 2750 50  0000 C CNN
F 1 "SMA_EDGE" H 10350 2500 50  0000 C CNN
F 2 "mogar_modules_new:SMA-EDGE-HandSolder" H 10600 2850 50  0001 C CNN
F 3 "" H 10650 2600 60  0000 C CNN
	1    10650 2600
	-1   0    0    -1  
$EndComp
Wire Wire Line
	8700 6450 8700 6300
Wire Wire Line
	8400 6350 8400 6400
Wire Wire Line
	8400 6400 8700 6400
Connection ~ 8700 6400
Wire Wire Line
	8500 6300 8500 6400
Connection ~ 8500 6400
Wire Wire Line
	8550 6300 8550 6400
Connection ~ 8550 6400
Wire Wire Line
	8600 6300 8600 6400
Connection ~ 8600 6400
Wire Wire Line
	8650 6300 8650 6400
Connection ~ 8650 6400
$Comp
L C-RESCUE-HAMShield04 C301
U 1 1 56A1279E
P 7350 5850
F 0 "C301" H 7400 5950 50  0000 L CNN
F 1 "DNP" H 7400 5750 50  0000 L CNN
F 2 "Capacitors_SMD:C_0603" H 7388 5700 30  0001 C CNN
F 3 "" H 7350 5850 60  0000 C CNN
	1    7350 5850
	0    1    1    0   
$EndComp
Wire Wire Line
	7050 5750 7050 5850
Wire Wire Line
	7050 5850 7150 5850
Wire Wire Line
	7100 5850 7100 5700
Wire Wire Line
	7100 5700 7600 5700
Connection ~ 7100 5850
Wire Wire Line
	7550 5850 7650 5850
Wire Wire Line
	7600 5650 7600 5850
Connection ~ 7600 5850
Wire Wire Line
	8050 5850 8100 5850
$Comp
L INDUCTOR0603 L301
U 1 1 56A1561B
P 7600 5350
F 0 "L301" V 7550 5500 50  0000 L BNN
F 1 "DNP" V 7550 5100 50  0000 L BNN
F 2 "Capacitors_SMD:C_0603" H 7600 5500 50  0001 C CNN
F 3 "" H 7600 5350 60  0001 C CNN
	1    7600 5350
	1    0    0    -1  
$EndComp
$Comp
L GND-RESCUE-HAMShield04 #PWR088
U 1 1 56A1576B
P 7750 5150
F 0 "#PWR088" H 7750 5150 30  0001 C CNN
F 1 "GND" H 7750 5080 30  0001 C CNN
F 2 "" H 7750 5150 60  0001 C CNN
F 3 "" H 7750 5150 60  0001 C CNN
	1    7750 5150
	1    0    0    -1  
$EndComp
Wire Wire Line
	7600 5050 7600 5000
Wire Wire Line
	7600 5000 7750 5000
Wire Wire Line
	7750 5000 7750 5150
Connection ~ 7600 5700
$Comp
L RESISTOR0603-RES R?
U 1 1 5917ADED
P 7450 3650
AR Path="/52091E5F/5917ADED" Ref="R?"  Part="1" 
AR Path="/5209228F/5917ADED" Ref="R5"  Part="1" 
F 0 "R5" H 7300 3750 50  0000 L BNN
F 1 "49.9" H 7300 3520 50  0000 L BNN
F 2 "Resistors_SMD:R_0402" H 7700 3450 50  0001 C CNN
F 3 "~" H 7450 3650 60  0000 C CNN
	1    7450 3650
	0    1    1    0   
$EndComp
Wire Wire Line
	7650 3850 7450 3850
$Comp
L GND-RESCUE-HAMShield04 #PWR089
U 1 1 5917B265
P 7200 3450
F 0 "#PWR089" H 7200 3450 30  0001 C CNN
F 1 "GND" H 7200 3380 30  0001 C CNN
F 2 "" H 7200 3450 60  0001 C CNN
F 3 "" H 7200 3450 60  0001 C CNN
	1    7200 3450
	1    0    0    -1  
$EndComp
Wire Wire Line
	7200 3450 7200 3350
Wire Wire Line
	7200 3350 7450 3350
Wire Wire Line
	7450 3350 7450 3450
Wire Wire Line
	4150 1700 4100 1700
Wire Wire Line
	4100 1700 4100 1600
Wire Wire Line
	900  1600 900  1700
Wire Wire Line
	900  1700 950  1700
Text Label 1250 4950 0    60   ~ 0
STAGE1_OUT
Text Label 6550 5950 3    60   ~ 0
STAGE2_OUT
Text Label 8700 2850 3    60   ~ 0
STAGE2_OUT
Wire Wire Line
	4150 3650 4100 3650
Wire Wire Line
	4100 3650 4100 3550
$Comp
L C-RESCUE-HAMShield04 C38
U 1 1 593C019C
P 5300 7250
F 0 "C38" H 5350 7350 50  0000 L CNN
F 1 "7p" H 5350 7150 50  0000 L CNN
F 2 "Capacitors_SMD:C_0402" H 5338 7100 30  0001 C CNN
F 3 "" H 5300 7250 60  0000 C CNN
	1    5300 7250
	-1   0    0    -1  
$EndComp
$Comp
L INDUCTOR_SMALL L8
U 1 1 593C01A2
P 5000 6900
F 0 "L8" H 5000 7000 50  0000 C CNN
F 1 "3.9n" H 5000 6850 50  0000 C CNN
F 2 "Capacitors_SMD:C_0402" H 5000 6900 60  0001 C CNN
F 3 "" H 5000 6900 60  0000 C CNN
	1    5000 6900
	-1   0    0    -1  
$EndComp
$Comp
L GND-RESCUE-HAMShield04 #PWR090
U 1 1 593C01A8
P 5300 7500
F 0 "#PWR090" H 5300 7500 30  0001 C CNN
F 1 "GND" H 5300 7430 30  0001 C CNN
F 2 "" H 5300 7500 60  0001 C CNN
F 3 "" H 5300 7500 60  0001 C CNN
	1    5300 7500
	-1   0    0    -1  
$EndComp
Wire Wire Line
	5300 7500 5300 7450
Wire Wire Line
	5300 6900 5300 7050
Connection ~ 5300 6900
$Comp
L INDUCTOR_SMALL L6
U 1 1 593C01B1
P 4400 6900
F 0 "L6" H 4400 7000 50  0000 C CNN
F 1 "3.6n" H 4400 6850 50  0000 C CNN
F 2 "Capacitors_SMD:C_0402" H 4400 6900 60  0001 C CNN
F 3 "" H 4400 6900 60  0000 C CNN
	1    4400 6900
	-1   0    0    -1  
$EndComp
$Comp
L GND-RESCUE-HAMShield04 #PWR091
U 1 1 593C01B7
P 4700 7500
F 0 "#PWR091" H 4700 7500 30  0001 C CNN
F 1 "GND" H 4700 7430 30  0001 C CNN
F 2 "" H 4700 7500 60  0001 C CNN
F 3 "" H 4700 7500 60  0001 C CNN
	1    4700 7500
	-1   0    0    -1  
$EndComp
Wire Wire Line
	4700 7500 4700 7450
Wire Wire Line
	4700 6900 4700 7050
Connection ~ 4700 6900
$Comp
L C-RESCUE-HAMShield04 C34
U 1 1 593C01C0
P 4700 7250
F 0 "C34" H 4750 7350 50  0000 L CNN
F 1 "11p" H 4750 7150 50  0000 L CNN
F 2 "Capacitors_SMD:C_0402" H 4738 7100 30  0001 C CNN
F 3 "" H 4700 7250 60  0000 C CNN
	1    4700 7250
	-1   0    0    -1  
$EndComp
Wire Wire Line
	4750 6900 4650 6900
Wire Wire Line
	5250 6900 5350 6900
$Comp
L C-RESCUE-HAMShield04 C46
U 1 1 593C02F2
P 6500 7250
F 0 "C46" H 6550 7350 50  0000 L CNN
F 1 "2.2p" H 6550 7150 50  0000 L CNN
F 2 "Capacitors_SMD:C_0402" H 6538 7100 30  0001 C CNN
F 3 "" H 6500 7250 60  0000 C CNN
	1    6500 7250
	-1   0    0    -1  
$EndComp
$Comp
L INDUCTOR_SMALL L12
U 1 1 593C02F8
P 6200 6900
F 0 "L12" H 6200 7000 50  0000 C CNN
F 1 "6.2n" H 6200 6850 50  0000 C CNN
F 2 "Capacitors_SMD:C_0603" H 6200 6900 60  0001 C CNN
F 3 "" H 6200 6900 60  0000 C CNN
	1    6200 6900
	-1   0    0    -1  
$EndComp
$Comp
L GND-RESCUE-HAMShield04 #PWR092
U 1 1 593C02FE
P 6500 7500
F 0 "#PWR092" H 6500 7500 30  0001 C CNN
F 1 "GND" H 6500 7430 30  0001 C CNN
F 2 "" H 6500 7500 60  0001 C CNN
F 3 "" H 6500 7500 60  0001 C CNN
	1    6500 7500
	-1   0    0    -1  
$EndComp
Wire Wire Line
	6500 7500 6500 7450
Wire Wire Line
	6500 6900 6500 7050
Connection ~ 6500 6900
$Comp
L INDUCTOR_SMALL L10
U 1 1 593C0307
P 5600 6900
F 0 "L10" H 5600 7000 50  0000 C CNN
F 1 "5.6n" H 5600 6850 50  0000 C CNN
F 2 "Capacitors_SMD:C_0603" H 5600 6900 60  0001 C CNN
F 3 "" H 5600 6900 60  0000 C CNN
	1    5600 6900
	-1   0    0    -1  
$EndComp
$Comp
L GND-RESCUE-HAMShield04 #PWR093
U 1 1 593C030D
P 5900 7500
F 0 "#PWR093" H 5900 7500 30  0001 C CNN
F 1 "GND" H 5900 7430 30  0001 C CNN
F 2 "" H 5900 7500 60  0001 C CNN
F 3 "" H 5900 7500 60  0001 C CNN
	1    5900 7500
	-1   0    0    -1  
$EndComp
Wire Wire Line
	5900 7500 5900 7450
Wire Wire Line
	5900 6900 5900 7050
Connection ~ 5900 6900
$Comp
L C-RESCUE-HAMShield04 C45
U 1 1 593C0316
P 5900 7250
F 0 "C45" H 5950 7350 50  0000 L CNN
F 1 "5.1p" H 5950 7150 50  0000 L CNN
F 2 "Capacitors_SMD:C_0402" H 5938 7100 30  0001 C CNN
F 3 "" H 5900 7250 60  0000 C CNN
	1    5900 7250
	-1   0    0    -1  
$EndComp
Wire Wire Line
	5950 6900 5850 6900
Wire Wire Line
	6450 6900 6550 6900
$Comp
L VTX #VTX094
U 1 1 593C59C5
P 2650 5950
F 0 "#VTX094" H 2650 6050 30  0001 C CNN
F 1 "VTX" H 2650 6050 30  0000 C CNN
F 2 "" H 2650 5950 60  0001 C CNN
F 3 "" H 2650 5950 60  0001 C CNN
	1    2650 5950
	1    0    0    -1  
$EndComp
Wire Wire Line
	1850 4950 1850 5100
$Comp
L C-RESCUE-HAMShield04 C26
U 1 1 593CAAA9
P 2550 5300
F 0 "C26" H 2600 5400 50  0000 L CNN
F 1 "7p" H 2600 5200 50  0000 L CNN
F 2 "Capacitors_SMD:C_0402" H 2588 5150 30  0001 C CNN
F 3 "" H 2550 5300 60  0000 C CNN
	1    2550 5300
	1    0    0    -1  
$EndComp
$Comp
L INDUCTOR_SMALL L1
U 1 1 593CAAAF
P 2900 4950
F 0 "L1" H 2900 5050 50  0000 C CNN
F 1 "5.6n" H 2900 4900 50  0000 C CNN
F 2 "Capacitors_SMD:C_0603" H 2900 4950 60  0001 C CNN
F 3 "" H 2900 4950 60  0000 C CNN
	1    2900 4950
	1    0    0    -1  
$EndComp
$Comp
L GND-RESCUE-HAMShield04 #PWR095
U 1 1 593CAAB5
P 2550 5550
F 0 "#PWR095" H 2550 5550 30  0001 C CNN
F 1 "GND" H 2550 5480 30  0001 C CNN
F 2 "" H 2550 5550 60  0001 C CNN
F 3 "" H 2550 5550 60  0001 C CNN
	1    2550 5550
	1    0    0    -1  
$EndComp
Wire Wire Line
	2550 5550 2550 5500
Connection ~ 2550 4950
Wire Wire Line
	2450 4950 2650 4950
Wire Wire Line
	2550 4950 2550 5100
$Comp
L C-RESCUE-HAMShield04 C27
U 1 1 593CABD3
P 3250 5300
F 0 "C27" H 3300 5400 50  0000 L CNN
F 1 "8p" H 3300 5200 50  0000 L CNN
F 2 "Capacitors_SMD:C_0402" H 3288 5150 30  0001 C CNN
F 3 "" H 3250 5300 60  0000 C CNN
	1    3250 5300
	1    0    0    -1  
$EndComp
$Comp
L INDUCTOR_SMALL L4
U 1 1 593CABD9
P 3600 4950
F 0 "L4" H 3600 5050 50  0000 C CNN
F 1 "3.9n" H 3600 4900 50  0000 C CNN
F 2 "Capacitors_SMD:C_0402" H 3600 4950 60  0001 C CNN
F 3 "" H 3600 4950 60  0000 C CNN
	1    3600 4950
	1    0    0    -1  
$EndComp
$Comp
L GND-RESCUE-HAMShield04 #PWR096
U 1 1 593CABDF
P 3250 5550
F 0 "#PWR096" H 3250 5550 30  0001 C CNN
F 1 "GND" H 3250 5480 30  0001 C CNN
F 2 "" H 3250 5550 60  0001 C CNN
F 3 "" H 3250 5550 60  0001 C CNN
	1    3250 5550
	1    0    0    -1  
$EndComp
Wire Wire Line
	3250 5550 3250 5500
Connection ~ 3250 4950
Wire Wire Line
	3150 4950 3350 4950
Wire Wire Line
	3250 4950 3250 5100
$Comp
L C-RESCUE-HAMShield04 C32
U 1 1 593CABE9
P 3950 5300
F 0 "C32" H 4000 5400 50  0000 L CNN
F 1 "14p" H 4000 5200 50  0000 L CNN
F 2 "Capacitors_SMD:C_0402" H 3988 5150 30  0001 C CNN
F 3 "" H 3950 5300 60  0000 C CNN
	1    3950 5300
	1    0    0    -1  
$EndComp
$Comp
L INDUCTOR_SMALL L5
U 1 1 593CABEF
P 4300 4950
F 0 "L5" H 4300 5050 50  0000 C CNN
F 1 "3n" H 4300 4900 50  0000 C CNN
F 2 "Capacitors_SMD:C_0603" H 4300 4950 60  0001 C CNN
F 3 "" H 4300 4950 60  0000 C CNN
	1    4300 4950
	1    0    0    -1  
$EndComp
$Comp
L GND-RESCUE-HAMShield04 #PWR097
U 1 1 593CABF5
P 3950 5550
F 0 "#PWR097" H 3950 5550 30  0001 C CNN
F 1 "GND" H 3950 5480 30  0001 C CNN
F 2 "" H 3950 5550 60  0001 C CNN
F 3 "" H 3950 5550 60  0001 C CNN
	1    3950 5550
	1    0    0    -1  
$EndComp
Wire Wire Line
	3950 5550 3950 5500
Connection ~ 3950 4950
Wire Wire Line
	3850 4950 4050 4950
Wire Wire Line
	3950 4950 3950 5100
$Comp
L C-RESCUE-HAMShield04 C33
U 1 1 593CACF3
P 4650 5300
F 0 "C33" H 4700 5400 50  0000 L CNN
F 1 "24p" H 4700 5200 50  0000 L CNN
F 2 "Capacitors_SMD:C_0603" H 4688 5150 30  0001 C CNN
F 3 "" H 4650 5300 60  0000 C CNN
	1    4650 5300
	1    0    0    -1  
$EndComp
$Comp
L INDUCTOR_SMALL L7
U 1 1 593CACF9
P 5000 4950
F 0 "L7" H 5000 5050 50  0000 C CNN
F 1 "2n" H 5000 4900 50  0000 C CNN
F 2 "Capacitors_SMD:C_0603" H 5000 4950 60  0001 C CNN
F 3 "" H 5000 4950 60  0000 C CNN
	1    5000 4950
	1    0    0    -1  
$EndComp
$Comp
L GND-RESCUE-HAMShield04 #PWR098
U 1 1 593CACFF
P 4650 5550
F 0 "#PWR098" H 4650 5550 30  0001 C CNN
F 1 "GND" H 4650 5480 30  0001 C CNN
F 2 "" H 4650 5550 60  0001 C CNN
F 3 "" H 4650 5550 60  0001 C CNN
	1    4650 5550
	1    0    0    -1  
$EndComp
Wire Wire Line
	4650 5550 4650 5500
Connection ~ 4650 4950
Wire Wire Line
	4550 4950 4750 4950
Wire Wire Line
	4650 4950 4650 5100
$Comp
L C-RESCUE-HAMShield04 C44
U 1 1 593CAD09
P 5350 5300
F 0 "C44" H 5400 5400 50  0000 L CNN
F 1 "47p" H 5400 5200 50  0000 L CNN
F 2 "Capacitors_SMD:C_0402" H 5388 5150 30  0001 C CNN
F 3 "" H 5350 5300 60  0000 C CNN
	1    5350 5300
	1    0    0    -1  
$EndComp
$Comp
L INDUCTOR_SMALL L11
U 1 1 593CAD0F
P 5700 4950
F 0 "L11" H 5700 5050 50  0000 C CNN
F 1 "0ohm" H 5700 4900 50  0000 C CNN
F 2 "Capacitors_SMD:C_0402" H 5700 4950 60  0001 C CNN
F 3 "" H 5700 4950 60  0000 C CNN
	1    5700 4950
	1    0    0    -1  
$EndComp
$Comp
L GND-RESCUE-HAMShield04 #PWR099
U 1 1 593CAD15
P 5350 5550
F 0 "#PWR099" H 5350 5550 30  0001 C CNN
F 1 "GND" H 5350 5480 30  0001 C CNN
F 2 "" H 5350 5550 60  0001 C CNN
F 3 "" H 5350 5550 60  0001 C CNN
	1    5350 5550
	1    0    0    -1  
$EndComp
Wire Wire Line
	5350 5550 5350 5500
Connection ~ 5350 4950
Wire Wire Line
	5250 4950 5450 4950
Wire Wire Line
	5350 4950 5350 5100
Wire Wire Line
	5950 4950 6400 4950
Text Label 6400 4950 2    60   ~ 0
S2_IN
Text Label 1500 6900 0    60   ~ 0
S2_IN
$Comp
L C-RESCUE-HAMShield04 C48
U 1 1 597F3A09
P 6550 6700
F 0 "C48" H 6600 6800 50  0000 L CNN
F 1 "100p" H 6600 6600 50  0000 L CNN
F 2 "Capacitors_SMD:C_0603" H 6588 6550 30  0001 C CNN
F 3 "" H 6550 6700 60  0000 C CNN
	1    6550 6700
	1    0    0    1   
$EndComp
Wire Wire Line
	6550 6500 6550 5950
$EndSCHEMATC
