<?xml version="1.0" encoding="utf-8"?>
<!DOCTYPE eagle SYSTEM "eagle.dtd">
<eagle version="9.3.0">
<drawing>
<settings>
<setting alwaysvectorfont="no"/>
<setting keepoldvectorfont="yes"/>
<setting verticaltext="up"/>
</settings>
<grid distance="0.1" unitdist="inch" unit="inch" style="lines" multiple="1" display="yes" altdistance="0.01" altunitdist="inch" altunit="inch"/>
<layers>
<layer number="1" name="Top" color="4" fill="1" visible="yes" active="yes"/>
<layer number="16" name="Bottom" color="1" fill="1" visible="yes" active="yes"/>
<layer number="17" name="Pads" color="2" fill="1" visible="yes" active="yes"/>
<layer number="18" name="Vias" color="2" fill="1" visible="yes" active="yes"/>
<layer number="19" name="Unrouted" color="6" fill="1" visible="yes" active="yes"/>
<layer number="20" name="Dimension" color="15" fill="1" visible="yes" active="yes"/>
<layer number="21" name="tPlace" color="7" fill="1" visible="yes" active="yes"/>
<layer number="22" name="bPlace" color="7" fill="1" visible="yes" active="yes"/>
<layer number="23" name="tOrigins" color="15" fill="1" visible="yes" active="yes"/>
<layer number="24" name="bOrigins" color="15" fill="1" visible="yes" active="yes"/>
<layer number="25" name="tNames" color="7" fill="1" visible="yes" active="yes"/>
<layer number="26" name="bNames" color="7" fill="1" visible="yes" active="yes"/>
<layer number="27" name="tValues" color="7" fill="1" visible="yes" active="yes"/>
<layer number="28" name="bValues" color="7" fill="1" visible="yes" active="yes"/>
<layer number="29" name="tStop" color="7" fill="3" visible="no" active="yes"/>
<layer number="30" name="bStop" color="7" fill="6" visible="no" active="yes"/>
<layer number="31" name="tCream" color="7" fill="4" visible="no" active="yes"/>
<layer number="32" name="bCream" color="7" fill="5" visible="no" active="yes"/>
<layer number="33" name="tFinish" color="6" fill="3" visible="no" active="yes"/>
<layer number="34" name="bFinish" color="6" fill="6" visible="no" active="yes"/>
<layer number="35" name="tGlue" color="7" fill="4" visible="no" active="yes"/>
<layer number="36" name="bGlue" color="7" fill="5" visible="no" active="yes"/>
<layer number="37" name="tTest" color="7" fill="1" visible="no" active="yes"/>
<layer number="38" name="bTest" color="7" fill="1" visible="no" active="yes"/>
<layer number="39" name="tKeepout" color="4" fill="11" visible="yes" active="yes"/>
<layer number="40" name="bKeepout" color="1" fill="11" visible="yes" active="yes"/>
<layer number="41" name="tRestrict" color="4" fill="10" visible="yes" active="yes"/>
<layer number="42" name="bRestrict" color="1" fill="10" visible="yes" active="yes"/>
<layer number="43" name="vRestrict" color="2" fill="10" visible="yes" active="yes"/>
<layer number="44" name="Drills" color="7" fill="1" visible="no" active="yes"/>
<layer number="45" name="Holes" color="7" fill="1" visible="no" active="yes"/>
<layer number="46" name="Milling" color="3" fill="1" visible="no" active="yes"/>
<layer number="47" name="Measures" color="7" fill="1" visible="no" active="yes"/>
<layer number="48" name="Document" color="7" fill="1" visible="yes" active="yes"/>
<layer number="49" name="Reference" color="7" fill="1" visible="yes" active="yes"/>
<layer number="51" name="tDocu" color="7" fill="1" visible="yes" active="yes"/>
<layer number="52" name="bDocu" color="7" fill="1" visible="yes" active="yes"/>
<layer number="90" name="Modules" color="5" fill="1" visible="yes" active="yes"/>
<layer number="91" name="Nets" color="2" fill="1" visible="yes" active="yes"/>
<layer number="92" name="Busses" color="1" fill="1" visible="yes" active="yes"/>
<layer number="93" name="Pins" color="2" fill="1" visible="no" active="yes"/>
<layer number="94" name="Symbols" color="4" fill="1" visible="yes" active="yes"/>
<layer number="95" name="Names" color="7" fill="1" visible="yes" active="yes"/>
<layer number="96" name="Values" color="7" fill="1" visible="yes" active="yes"/>
<layer number="97" name="Info" color="7" fill="1" visible="yes" active="yes"/>
<layer number="98" name="Guide" color="6" fill="1" visible="yes" active="yes"/>
</layers>
<library>
<description>&lt;ON SEMICONDUCTOR - NCP1117ST33T3G - IC, LINEAR VOLTAGE REGULATOR&lt;/b&gt;&lt;p&gt;
&lt;author&gt;Created by SamacSys&lt;/author&gt;</description>
<packages>
<package name="SOT230P700X180-4N">
<description>&lt;b&gt;SOT-223 ST SUFFIX CASE 318E-04 ISSUE O&lt;/b&gt;&lt;br&gt;
</description>
<smd name="1" x="-3.4" y="2.3" dx="1.25" dy="0.95" layer="1"/>
<smd name="2" x="-3.4" y="0" dx="1.25" dy="0.95" layer="1"/>
<smd name="3" x="-3.4" y="-2.3" dx="1.25" dy="0.95" layer="1"/>
<smd name="4" x="3.4" y="0" dx="3.2" dy="1.25" layer="1" rot="R90"/>
<text x="0" y="0" size="1.27" layer="25" align="center">&gt;NAME</text>
<text x="0" y="0" size="1.27" layer="51" align="center">&gt;VALUE</text>
<wire x1="-4.275" y1="3.6" x2="4.275" y2="3.6" width="0.05" layer="21"/>
<wire x1="4.275" y1="3.6" x2="4.275" y2="-3.6" width="0.05" layer="21"/>
<wire x1="4.275" y1="-3.6" x2="-4.275" y2="-3.6" width="0.05" layer="21"/>
<wire x1="-4.275" y1="-3.6" x2="-4.275" y2="3.6" width="0.05" layer="21"/>
<wire x1="-1.75" y1="3.25" x2="1.75" y2="3.25" width="0.1" layer="51"/>
<wire x1="1.75" y1="3.25" x2="1.75" y2="-3.25" width="0.1" layer="51"/>
<wire x1="1.75" y1="-3.25" x2="-1.75" y2="-3.25" width="0.1" layer="51"/>
<wire x1="-1.75" y1="-3.25" x2="-1.75" y2="3.25" width="0.1" layer="51"/>
<wire x1="-1.75" y1="0.95" x2="0.55" y2="3.25" width="0.1" layer="51"/>
<wire x1="-2.425" y1="3.25" x2="2.425" y2="3.25" width="0.2" layer="25"/>
<wire x1="2.425" y1="3.25" x2="2.425" y2="-3.25" width="0.2" layer="25"/>
<wire x1="2.425" y1="-3.25" x2="-2.425" y2="-3.25" width="0.2" layer="25"/>
<wire x1="-2.425" y1="-3.25" x2="-2.425" y2="3.25" width="0.2" layer="25"/>
<wire x1="-4.025" y1="3.125" x2="-2.775" y2="3.125" width="0.2" layer="25"/>
</package>
</packages>
<symbols>
<symbol name="NCP1117ST33T3G">
<wire x1="5.08" y1="2.54" x2="27.94" y2="2.54" width="0.254" layer="94"/>
<wire x1="27.94" y1="2.54" x2="27.94" y2="-5.08" width="0.254" layer="94"/>
<wire x1="27.94" y1="-5.08" x2="5.08" y2="-5.08" width="0.254" layer="94"/>
<wire x1="5.08" y1="-5.08" x2="5.08" y2="2.54" width="0.254" layer="94"/>
<text x="16.51" y="5.08" size="1.778" layer="95" align="center">&gt;NAME</text>
<text x="16.51" y="-7.62" size="1.778" layer="96" align="center">&gt;VALUE</text>
<pin name="GND" x="33.02" y="-2.54" length="middle" direction="pwr" rot="R180"/>
<pin name="OUT(1)" x="33.02" y="0" length="middle" direction="out" rot="R180"/>
<pin name="IN" x="0" y="-2.54" length="middle" direction="in"/>
<pin name="OUT(2)" x="0" y="0" length="middle" direction="out"/>
</symbol>
</symbols>
<devicesets>
<deviceset name="NCP1117ST33T3G" prefix="IC">
<description>&lt;b&gt;ON SEMICONDUCTOR - NCP1117ST33T3G - IC, LINEAR VOLTAGE REGULATOR&lt;/b&gt;&lt;p&gt;
&lt;/b&gt;&lt;br&gt;&lt;a href="&lt;br&gt;&lt;a href="https://componentsearchengine.com/Images/3/NCP1117ST33T3G.jpg" title="Image"&gt;
&lt;img src="https://componentsearchengine.com/Images/3/NCP1117ST33T3G.jpg" width="150"&gt;&lt;/a&gt;&lt;p&gt;
Source: &lt;a href="http://www.onsemi.com/pub/Collateral/NCP1117-D.PDF"&gt; Datasheet &lt;/a&gt;</description>
<gates>
<gate name="G$1" symbol="NCP1117ST33T3G" x="0" y="0"/>
</gates>
<devices>
<device name="" package="SOT230P700X180-4N">
<connects>
<connect gate="G$1" pin="GND" pad="1"/>
<connect gate="G$1" pin="IN" pad="3"/>
<connect gate="G$1" pin="OUT(1)" pad="2"/>
<connect gate="G$1" pin="OUT(2)" pad="4"/>
</connects>
<technologies>
<technology name="">
<attribute name="3D_PACKAGE" value="" constant="no"/>
<attribute name="ALLIED_NUMBER" value="70340559" constant="no"/>
<attribute name="DESCRIPTION" value="ON SEMICONDUCTOR - NCP1117ST33T3G - IC, LINEAR VOLTAGE REGULATOR" constant="no"/>
<attribute name="HEIGHT" value="1.8mm" constant="no"/>
<attribute name="MANUFACTURER_NAME" value="ON Semiconductor" constant="no"/>
<attribute name="MANUFACTURER_PART_NUMBER" value="NCP1117ST33T3G" constant="no"/>
<attribute name="OTHER_PART_NUMBER" value="" constant="no"/>
<attribute name="RS_PART_NUMBER" value="7857207P" constant="no"/>
<attribute name="SUPPLIER_NAME" value="RS" constant="no"/>
</technology>
</technologies>
</device>
</devices>
</deviceset>
</devicesets>
</library>
</drawing>
</eagle>
