EESchema Schematic File Version 4
LIBS:HamShieldMini1.2-cache
EELAYER 26 0
EELAYER END
$Descr A4 11693 8268
encoding utf-8
Sheet 1 4
Title "RF Transciever"
Date "2017-07-30"
Rev "1.1"
Comp "Enhanced Radio Devices"
Comment1 ""
Comment2 ""
Comment3 ""
Comment4 ""
$EndDescr
Wire Wire Line
	8200 4550 6700 4550
Wire Wire Line
	2950 5650 4800 5650
Wire Wire Line
	4800 5650 4800 5350
Wire Wire Line
	1500 850  750  850 
Wire Wire Line
	2500 3300 3400 3300
Wire Wire Line
	5050 5600 5050 5350
Wire Wire Line
	7550 4150 7250 4150
Connection ~ 7250 3750
Wire Wire Line
	7550 3850 7550 3750
Wire Wire Line
	7550 3750 7250 3750
Wire Wire Line
	7250 3800 6700 3800
Wire Wire Line
	8550 3700 8550 3650
Connection ~ 8550 3300
Wire Wire Line
	8550 3200 8550 3250
Wire Wire Line
	3950 2350 3950 2200
Wire Wire Line
	3950 2200 3550 2200
Wire Wire Line
	3550 2200 3550 2400
Wire Wire Line
	6450 6450 6450 6400
Wire Wire Line
	5550 6450 5550 6400
Connection ~ 6450 6000
Wire Wire Line
	6450 5900 6450 5950
Connection ~ 5550 5950
Wire Wire Line
	5800 5950 5550 5950
Wire Wire Line
	5550 6000 5300 6000
Wire Wire Line
	2400 4800 2400 4700
Wire Wire Line
	2400 4300 3400 4300
Wire Wire Line
	3400 4050 1800 4050
Wire Wire Line
	1800 4050 1800 4250
Wire Wire Line
	1350 4150 1350 4250
Connection ~ 1600 3800
Wire Wire Line
	1600 3850 1600 3800
Connection ~ 1100 3500
Wire Wire Line
	1350 3400 1350 3500
Wire Wire Line
	1350 3500 1100 3500
Connection ~ 1350 3050
Wire Wire Line
	1350 3100 1350 3050
Wire Wire Line
	1100 3050 1350 3050
Wire Wire Line
	1100 2900 1100 3050
Connection ~ 1100 3050
Wire Wire Line
	1100 3400 1100 3500
Wire Wire Line
	1350 3800 1600 3800
Wire Wire Line
	1350 3650 1350 3800
Connection ~ 1350 3800
Wire Wire Line
	1350 4250 1600 4250
Wire Wire Line
	1600 4250 1600 4150
Connection ~ 1350 4250
Connection ~ 1800 4250
Wire Wire Line
	2400 4250 2400 4300
Connection ~ 2400 4300
Wire Wire Line
	1800 4800 1800 4700
Wire Wire Line
	5550 5900 5550 5950
Connection ~ 5550 6000
Wire Wire Line
	6050 6000 6450 6000
Wire Wire Line
	6450 5950 6700 5950
Wire Wire Line
	6700 5950 6700 6100
Connection ~ 6450 5950
Wire Wire Line
	5550 6400 5800 6400
Wire Wire Line
	6450 6400 6700 6400
Wire Wire Line
	8550 3300 6700 3300
Wire Wire Line
	8550 3250 8800 3250
Wire Wire Line
	8800 3250 8800 3350
Connection ~ 8550 3250
Wire Wire Line
	8550 3650 8800 3650
Wire Wire Line
	7250 3700 7250 3750
Connection ~ 7250 3800
Wire Wire Line
	7250 4150 7250 4200
Wire Wire Line
	5050 6050 5050 5900
Wire Wire Line
	6700 3050 7150 3050
Wire Wire Line
	3400 3550 2500 3550
Wire Wire Line
	1500 1000 750  1000
Wire Wire Line
	4300 5350 4300 5450
Wire Wire Line
	4300 5450 2950 5450
Wire Wire Line
	5800 5350 5800 5550
Wire Wire Line
	7450 4850 8200 4850
$Sheet
S 7150 900  800  900 
U 5220DBD9
F0 "Power Control" 60
F1 "PowerCtl.sch" 60
F2 "V1" I L 7150 1200 60 
F3 "Y2" I L 7150 1650 60 
F4 "V2" I L 7150 1350 60 
F5 "Y1" I L 7150 1500 60 
$EndSheet
$Sheet
S 8200 4350 800  700 
U 5209228F
F0 "RF Front End" 60
F1 "HAM_RF.sch" 60
F2 "RF_IN" O L 8200 4850 60 
F3 "RF_OUT" I L 8200 4550 60 
F4 "V1" I R 9000 4500 60 
F5 "V2" I R 9000 4650 60 
F6 "Y1" I R 9000 4800 60 
F7 "Y2" I R 9000 4950 60 
$EndSheet
Text Label 2950 5650 0    60   ~ 0
MIC_IN
Text Label 2950 5450 0    60   ~ 0
AFOUT
Text Label 750  1000 0    60   ~ 0
MIC_IN
Text Label 750  850  0    60   ~ 0
AFOUT
$Sheet
S 1500 700  1200 1500
U 52091E5F
F0 "User Interface" 60
F1 "UserInterface.sch" 60
F2 "SCLK" O L 1500 2050 60 
F3 "SDIO" B L 1500 1900 60 
F4 "PDN" O R 2700 850 60 
F5 "AFOUT" I L 1500 850 60 
F6 "MIC_IN" O L 1500 1000 60 
F7 "nSEN" I L 1500 1750 60 
F8 "MODE" I L 1500 1600 60 
$EndSheet
$Comp
L HamShieldMini1.2-rescue:GND-RESCUE-HAMShield04 #PWR01
U 1 1 52091E02
P 7250 4200
F 0 "#PWR01" H 7250 4200 30  0001 C CNN
F 1 "GND" H 7250 4130 30  0001 C CNN
F 2 "" H 7250 4200 60  0001 C CNN
F 3 "" H 7250 4200 60  0001 C CNN
	1    7250 4200
	1    0    0    -1  
$EndComp
$Comp
L HamShieldMini1.2-rescue:GND-RESCUE-HAMShield04 #PWR02
U 1 1 52091D29
P 6450 6450
F 0 "#PWR02" H 6450 6450 30  0001 C CNN
F 1 "GND" H 6450 6380 30  0001 C CNN
F 2 "" H 6450 6450 60  0001 C CNN
F 3 "" H 6450 6450 60  0001 C CNN
	1    6450 6450
	1    0    0    -1  
$EndComp
$Comp
L HamShieldMini1.2-rescue:GND-RESCUE-HAMShield04 #PWR03
U 1 1 52091D25
P 5550 6450
F 0 "#PWR03" H 5550 6450 30  0001 C CNN
F 1 "GND" H 5550 6380 30  0001 C CNN
F 2 "" H 5550 6450 60  0001 C CNN
F 3 "" H 5550 6450 60  0001 C CNN
	1    5550 6450
	1    0    0    -1  
$EndComp
$Comp
L HamShieldMini1.2-rescue:GND-RESCUE-HAMShield04 #PWR04
U 1 1 52091CA3
P 2400 4800
F 0 "#PWR04" H 2400 4800 30  0001 C CNN
F 1 "GND" H 2400 4730 30  0001 C CNN
F 2 "" H 2400 4800 60  0001 C CNN
F 3 "" H 2400 4800 60  0001 C CNN
	1    2400 4800
	1    0    0    -1  
$EndComp
$Comp
L HamShieldMini1.2-rescue:GND-RESCUE-HAMShield04 #PWR05
U 1 1 52091CA0
P 1800 4800
F 0 "#PWR05" H 1800 4800 30  0001 C CNN
F 1 "GND" H 1800 4730 30  0001 C CNN
F 2 "" H 1800 4800 60  0001 C CNN
F 3 "" H 1800 4800 60  0001 C CNN
	1    1800 4800
	1    0    0    -1  
$EndComp
$Comp
L HamShieldMini1.2-rescue:GND-RESCUE-HAMShield04 #PWR06
U 1 1 52091C18
P 1350 4300
F 0 "#PWR06" H 1350 4300 30  0001 C CNN
F 1 "GND" H 1350 4230 30  0001 C CNN
F 2 "" H 1350 4300 60  0001 C CNN
F 3 "" H 1350 4300 60  0001 C CNN
	1    1350 4300
	1    0    0    -1  
$EndComp
$Comp
L HamShieldMini1.2-rescue:GND-RESCUE-HAMShield04 #PWR07
U 1 1 52091B80
P 8550 3700
F 0 "#PWR07" H 8550 3700 30  0001 C CNN
F 1 "GND" H 8550 3630 30  0001 C CNN
F 2 "" H 8550 3700 60  0001 C CNN
F 3 "" H 8550 3700 60  0001 C CNN
	1    8550 3700
	1    0    0    -1  
$EndComp
$Comp
L HamShieldMini1.2-rescue:GND-RESCUE-HAMShield04 #PWR08
U 1 1 52091B7E
P 3550 2400
F 0 "#PWR08" H 3550 2400 30  0001 C CNN
F 1 "GND" H 3550 2330 30  0001 C CNN
F 2 "" H 3550 2400 60  0001 C CNN
F 3 "" H 3550 2400 60  0001 C CNN
	1    3550 2400
	1    0    0    -1  
$EndComp
$Comp
L HamShieldMini1.2-rescue:GND-RESCUE-HAMShield04 #PWR09
U 1 1 52091B7A
P 5050 6050
F 0 "#PWR09" H 5050 6050 30  0001 C CNN
F 1 "GND" H 5050 5980 30  0001 C CNN
F 2 "" H 5050 6050 60  0001 C CNN
F 3 "" H 5050 6050 60  0001 C CNN
	1    5050 6050
	1    0    0    -1  
$EndComp
$Comp
L HamShieldMini1.2-rescue:GND-RESCUE-HAMShield04 #PWR010
U 1 1 52091B72
P 1100 3600
F 0 "#PWR010" H 1100 3600 30  0001 C CNN
F 1 "GND" H 1100 3530 30  0001 C CNN
F 2 "" H 1100 3600 60  0001 C CNN
F 3 "" H 1100 3600 60  0001 C CNN
	1    1100 3600
	1    0    0    -1  
$EndComp
$Comp
L mogar_KiCAD:RDA1846 U1
U 1 1 52091B34
P 5150 3800
F 0 "U1" H 5050 3900 60  0000 C CNN
F 1 "AU1846" H 5200 3600 60  0000 C CNN
F 2 "mogar_modules:QFN32-5x5" H 5150 3800 60  0001 C CNN
F 3 "" H 5150 3800 60  0001 C CNN
	1    5150 3800
	1    0    0    -1  
$EndComp
Wire Wire Line
	750  1900 1500 1900
Wire Wire Line
	750  2050 1500 2050
$Comp
L power:VCC #PWR011
U 1 1 546B800D
P 1100 2900
F 0 "#PWR011" H 1100 3000 30  0001 C CNN
F 1 "VCC" H 1100 3000 30  0000 C CNN
F 2 "" H 1100 2900 60  0000 C CNN
F 3 "" H 1100 2900 60  0000 C CNN
	1    1100 2900
	1    0    0    -1  
$EndComp
$Comp
L power:VCC #PWR012
U 1 1 546B801C
P 1350 3650
F 0 "#PWR012" H 1350 3750 30  0001 C CNN
F 1 "VCC" H 1350 3750 30  0000 C CNN
F 2 "" H 1350 3650 60  0000 C CNN
F 3 "" H 1350 3650 60  0000 C CNN
	1    1350 3650
	1    0    0    -1  
$EndComp
$Comp
L power:VCC #PWR013
U 1 1 546B8322
P 6450 5900
F 0 "#PWR013" H 6450 6000 30  0001 C CNN
F 1 "VCC" H 6450 6000 30  0000 C CNN
F 2 "" H 6450 5900 60  0000 C CNN
F 3 "" H 6450 5900 60  0000 C CNN
	1    6450 5900
	1    0    0    -1  
$EndComp
$Comp
L power:VCC #PWR014
U 1 1 546B8331
P 5550 5900
F 0 "#PWR014" H 5550 6000 30  0001 C CNN
F 1 "VCC" H 5550 6000 30  0000 C CNN
F 2 "" H 5550 5900 60  0000 C CNN
F 3 "" H 5550 5900 60  0000 C CNN
	1    5550 5900
	1    0    0    -1  
$EndComp
$Comp
L power:VCC #PWR015
U 1 1 546B85F2
P 8550 3200
F 0 "#PWR015" H 8550 3300 30  0001 C CNN
F 1 "VCC" H 8550 3300 30  0000 C CNN
F 2 "" H 8550 3200 60  0000 C CNN
F 3 "" H 8550 3200 60  0000 C CNN
	1    8550 3200
	1    0    0    -1  
$EndComp
$Comp
L power:VCC #PWR016
U 1 1 546B8601
P 7250 3700
F 0 "#PWR016" H 7250 3800 30  0001 C CNN
F 1 "VCC" H 7250 3800 30  0000 C CNN
F 2 "" H 7250 3700 60  0000 C CNN
F 3 "" H 7250 3700 60  0000 C CNN
	1    7250 3700
	1    0    0    -1  
$EndComp
Wire Wire Line
	2700 850  3150 850 
Text Label 3150 850  2    60   ~ 0
PDN
Text Label 7150 3050 2    60   ~ 0
PDN
Text Label 2500 3300 0    60   ~ 0
SCLK
Text Label 2500 3550 0    60   ~ 0
SDIO
Text Label 750  2050 0    60   ~ 0
SCLK
Text Label 750  1900 0    60   ~ 0
SDIO
Wire Wire Line
	5800 900  5800 2350
Wire Wire Line
	6050 900  6050 2350
Wire Wire Line
	11550 2000 11550 1900
$Comp
L power:VCC #PWR017
U 1 1 55C1E391
P 10300 850
F 0 "#PWR017" H 10300 950 30  0001 C CNN
F 1 "VCC" H 10300 950 30  0000 C CNN
F 2 "" H 10300 850 60  0000 C CNN
F 3 "" H 10300 850 60  0000 C CNN
	1    10300 850 
	1    0    0    -1  
$EndComp
Wire Wire Line
	5550 900  5550 1800
Wire Wire Line
	5300 900  5300 1650
Wire Wire Line
	5050 2350 5050 900 
Wire Wire Line
	4800 2350 4800 900 
Wire Wire Line
	4550 2350 4550 900 
Wire Wire Line
	4300 2350 4300 900 
Text Label 4300 900  3    60   ~ 0
GPIO0
Text Label 4550 900  3    60   ~ 0
GPIO1
Text Label 4800 900  3    60   ~ 0
GPIO2
Text Label 5050 900  3    60   ~ 0
GPIO3
Text Label 5300 900  3    60   ~ 0
GPIO4
Text Label 5550 900  3    60   ~ 0
GPIO5
Text Label 5800 900  3    60   ~ 0
GPIO6
Text Label 6050 900  3    60   ~ 0
GPIO7
Text Label 10000 1150 0    60   ~ 0
GPIO0
Wire Wire Line
	10300 850  10300 1050
Wire Wire Line
	10300 1050 10550 1050
Wire Wire Line
	10000 1150 10550 1150
Text Label 10000 1250 0    60   ~ 0
GPIO1
Text Label 10000 1350 0    60   ~ 0
GPIO2
Text Label 10000 1450 0    60   ~ 0
GPIO3
Text Label 10000 1550 0    60   ~ 0
GPIO4
Text Label 10000 1650 0    60   ~ 0
GPIO5
Text Label 10000 1750 0    60   ~ 0
GPIO6
Text Label 10000 1850 0    60   ~ 0
GPIO7
Wire Wire Line
	10000 1250 10550 1250
Wire Wire Line
	10550 1350 10000 1350
Wire Wire Line
	10000 1450 10550 1450
Wire Wire Line
	10550 1550 10000 1550
Wire Wire Line
	10000 1650 10550 1650
Wire Wire Line
	10550 1750 10000 1750
Wire Wire Line
	10550 1850 10000 1850
$Comp
L HamShieldMini1.2-rescue:GND-RESCUE-HAMShield04 #PWR018
U 1 1 55C20ACF
P 10300 2100
F 0 "#PWR018" H 10300 2100 30  0001 C CNN
F 1 "GND" H 10300 2030 30  0001 C CNN
F 2 "" H 10300 2100 60  0001 C CNN
F 3 "" H 10300 2100 60  0001 C CNN
	1    10300 2100
	1    0    0    -1  
$EndComp
Wire Wire Line
	10300 2100 10300 1950
Wire Wire Line
	10300 1950 10550 1950
Text Label 7450 4850 0    60   ~ 0
RFin
Text Label 5800 5550 1    60   ~ 0
RFin
Wire Wire Line
	5300 6000 5300 5350
Wire Wire Line
	5800 5950 5800 6100
Wire Wire Line
	6050 5350 6050 6000
Text Label 3700 1650 0    60   ~ 0
V1
Text Label 3700 1800 0    60   ~ 0
V2
Wire Wire Line
	9000 4500 9400 4500
Text Label 9400 4500 2    60   ~ 0
V1
Wire Wire Line
	9000 4650 9400 4650
Text Label 9400 4650 2    60   ~ 0
V2
Wire Wire Line
	7150 1200 6650 1200
Text Label 6650 1200 0    60   ~ 0
V1
Wire Wire Line
	7150 1350 6650 1350
Text Label 6650 1350 0    60   ~ 0
V2
Wire Wire Line
	7150 1500 6650 1500
Text Label 6650 1500 0    60   ~ 0
Y1
Wire Wire Line
	7150 1650 6650 1650
Text Label 6650 1650 0    60   ~ 0
Y2
Wire Wire Line
	9000 4800 9400 4800
Text Label 9400 4800 2    60   ~ 0
Y1
Wire Wire Line
	9000 4950 9400 4950
Text Label 9400 4950 2    60   ~ 0
Y2
Wire Wire Line
	3700 1650 5300 1650
Connection ~ 5300 1650
Wire Wire Line
	3700 1800 5550 1800
Connection ~ 5550 1800
$Comp
L HamShieldMini1.2-rescue:GND-RESCUE-HAMShield04 #PWR019
U 1 1 55FD5BCC
P 2050 7250
F 0 "#PWR019" H 2050 7250 30  0001 C CNN
F 1 "GND" H 2050 7180 30  0001 C CNN
F 2 "" H 2050 7250 60  0001 C CNN
F 3 "" H 2050 7250 60  0001 C CNN
	1    2050 7250
	1    0    0    -1  
$EndComp
Wire Wire Line
	1900 7150 2050 7150
Wire Wire Line
	2050 7150 2050 7250
$Comp
L power:VCC #PWR020
U 1 1 55FD5BD4
P 1000 6300
F 0 "#PWR020" H 1000 6400 30  0001 C CNN
F 1 "VCC" H 1000 6400 30  0000 C CNN
F 2 "" H 1000 6300 60  0000 C CNN
F 3 "" H 1000 6300 60  0000 C CNN
	1    1000 6300
	1    0    0    -1  
$EndComp
Wire Wire Line
	1000 6300 1000 6400
Wire Wire Line
	1000 6750 1100 6750
Wire Wire Line
	1150 6400 1000 6400
Connection ~ 1000 6400
$Comp
L HamShieldMini1.2-rescue:GND-RESCUE-HAMShield04 #PWR021
U 1 1 55FD5BE5
P 1600 6450
F 0 "#PWR021" H 1600 6450 30  0001 C CNN
F 1 "GND" H 1600 6380 30  0001 C CNN
F 2 "" H 1600 6450 60  0001 C CNN
F 3 "" H 1600 6450 60  0001 C CNN
	1    1600 6450
	1    0    0    -1  
$EndComp
Wire Wire Line
	1450 6400 1600 6400
Wire Wire Line
	1600 6400 1600 6450
Wire Wire Line
	1900 6750 2100 6750
Text Label 2100 6950 2    60   ~ 0
V2
Wire Wire Line
	1900 6950 2100 6950
Text Label 2100 6750 2    60   ~ 0
V1
Wire Wire Line
	1100 6950 850  6950
Text Label 850  7150 0    60   ~ 0
Y2
Wire Wire Line
	1100 7150 850  7150
Text Label 850  6950 0    60   ~ 0
Y1
$Comp
L SparkFun:FIDUCIAL1X2.5 FD1
U 1 1 560ADEDD
P 4400 7450
F 0 "FD1" H 4400 7550 50  0000 C CNN
F 1 "FIDUCIAL1X2.5" H 4400 7350 50  0000 C CNN
F 2 "SparkFun:SparkFun-FIDUCIAL-1X2.5" H 4400 7250 50  0001 C CNN
F 3 "" H 4400 7450 60  0000 C CNN
	1    4400 7450
	1    0    0    -1  
$EndComp
$Comp
L SparkFun:FIDUCIAL1X2.5 FD2
U 1 1 560AE065
P 5150 7450
F 0 "FD2" H 5150 7550 50  0000 C CNN
F 1 "FIDUCIAL1X2.5" H 5150 7350 50  0000 C CNN
F 2 "SparkFun:SparkFun-FIDUCIAL-1X2.5" H 5150 7250 50  0001 C CNN
F 3 "" H 5150 7450 60  0000 C CNN
	1    5150 7450
	1    0    0    -1  
$EndComp
$Comp
L mogar_KiCAD:NC7WZ14 U12
U 1 1 560E146E
P 1500 6950
F 0 "U12" H 1500 7300 50  0000 C CNN
F 1 "NC7WZ14" H 1500 6600 50  0000 C CNN
F 2 "Housings_SOT-23_SOT-143_TSOT-6:SC-70-6" H 1500 6950 60  0001 C CNN
F 3 "" H 1500 6950 60  0000 C CNN
	1    1500 6950
	-1   0    0    -1  
$EndComp
Wire Wire Line
	1900 4250 1800 4250
Wire Wire Line
	2300 4250 2400 4250
$Comp
L HamShieldMini1.2-rescue:GND-RESCUE-HAMShield04 #PWR022
U 1 1 5688B07C
P 2100 4500
F 0 "#PWR022" H 2100 4500 30  0001 C CNN
F 1 "GND" H 2100 4430 30  0001 C CNN
F 2 "" H 2100 4500 60  0001 C CNN
F 3 "" H 2100 4500 60  0001 C CNN
	1    2100 4500
	1    0    0    -1  
$EndComp
Wire Wire Line
	2100 4500 2100 4400
Wire Wire Line
	2050 4400 2100 4400
Wire Wire Line
	2050 4400 2050 4350
Wire Wire Line
	2150 4400 2150 4350
Connection ~ 2100 4400
$Comp
L mogar_KiCAD:CRYSTAL_4PIN_MD Y1
U 1 1 5688BA8C
P 2100 4250
F 0 "Y1" H 2100 4340 50  0000 C CNN
F 1 "12.8MHz" H 1950 4400 50  0000 L CNN
F 2 "mogar_modules_new:CRYSTAL-SMD-5X3" H 2100 4250 60  0001 C CNN
F 3 "" H 2100 4250 60  0000 C CNN
	1    2100 4250
	1    0    0    -1  
$EndComp
Wire Wire Line
	2950 4800 3400 4800
Wire Wire Line
	2950 4550 3400 4550
Text Label 2950 4800 0    60   ~ 0
nSEN
Wire Wire Line
	1500 1750 750  1750
Text Label 750  1750 0    60   ~ 0
nSEN
Text Label 2950 4550 0    60   ~ 0
MODE
Wire Wire Line
	1500 1600 750  1600
Text Label 750  1600 0    60   ~ 0
MODE
NoConn ~ 6700 3550
$Comp
L SparkFun:FIDUCIAL1X2.5 FD3
U 1 1 59795BE7
P 5900 7450
F 0 "FD3" H 5900 7550 50  0000 C CNN
F 1 "FIDUCIAL1X2.5" H 5900 7350 50  0000 C CNN
F 2 "SparkFun:SparkFun-FIDUCIAL-1X2.5" H 5900 7250 50  0001 C CNN
F 3 "" H 5900 7450 60  0000 C CNN
	1    5900 7450
	1    0    0    -1  
$EndComp
Wire Wire Line
	7250 3750 7250 3800
Wire Wire Line
	8550 3300 8550 3350
Wire Wire Line
	6450 6000 6450 6100
Wire Wire Line
	5550 5950 5550 6000
Wire Wire Line
	1600 3800 3400 3800
Wire Wire Line
	1100 3500 1100 3600
Wire Wire Line
	1350 3050 3400 3050
Wire Wire Line
	1100 3050 1100 3100
Wire Wire Line
	1350 3800 1350 3850
Wire Wire Line
	1350 4250 1350 4300
Wire Wire Line
	1800 4250 1800 4400
Wire Wire Line
	2400 4300 2400 4400
Wire Wire Line
	5550 6000 5550 6100
Wire Wire Line
	6450 5950 6450 6000
Wire Wire Line
	8550 3250 8550 3300
Wire Wire Line
	7250 3800 7250 3850
Wire Wire Line
	5300 1650 5300 2350
Wire Wire Line
	5550 1800 5550 2350
Wire Wire Line
	1000 6400 1000 6750
Wire Wire Line
	2100 4400 2150 4400
$Comp
L conn:Conn_01x10 P1
U 1 1 5B8C94D1
P 10750 1450
F 0 "P1" H 10725 1950 50  0000 L CNN
F 1 "Conn_01x10" V 10850 1225 50  0000 L CNN
F 2 "Pin_Headers:Pin_Header_Straight_1x10" H 10750 1450 50  0001 C CNN
F 3 "~" H 10750 1450 50  0001 C CNN
	1    10750 1450
	1    0    0    -1  
$EndComp
$Comp
L Mechanical:MountingHole MK1
U 1 1 5B8C9926
P 3100 7375
F 0 "MK1" H 3200 7421 50  0000 L CNN
F 1 "MountingHole" H 3200 7330 50  0000 L CNN
F 2 "Mounting_Holes:MountingHole_3.2mm_M3" H 3100 7375 50  0001 C CNN
F 3 "~" H 3100 7375 50  0001 C CNN
	1    3100 7375
	1    0    0    -1  
$EndComp
$Comp
L Mechanical:MountingHole MK2
U 1 1 5B8C9A7F
P 3100 7625
F 0 "MK2" H 3200 7671 50  0000 L CNN
F 1 "MountingHole" H 3200 7580 50  0000 L CNN
F 2 "Mounting_Holes:MountingHole_3.2mm_M3" H 3100 7625 50  0001 C CNN
F 3 "~" H 3100 7625 50  0001 C CNN
	1    3100 7625
	1    0    0    -1  
$EndComp
$Comp
L Device:C C17
U 1 1 5B8C9D56
P 1300 6400
F 0 "C17" V 1048 6400 50  0000 C CNN
F 1 "0u1" V 1139 6400 50  0000 C CNN
F 2 "Capacitors_SMD:C_0402" H 1338 6250 50  0001 C CNN
F 3 "~" H 1300 6400 50  0001 C CNN
	1    1300 6400
	0    1    1    0   
$EndComp
$Comp
L Device:C C8
U 1 1 5B8CA00E
P 7550 4000
F 0 "C8" H 7435 3954 50  0000 R CNN
F 1 "0u1" H 7435 4045 50  0000 R CNN
F 2 "Capacitors_SMD:C_0402" H 7588 3850 50  0001 C CNN
F 3 "~" H 7550 4000 50  0001 C CNN
	1    7550 4000
	-1   0    0    1   
$EndComp
$Comp
L Device:C C4
U 1 1 5B8CA240
P 8800 3500
F 0 "C4" H 8685 3454 50  0000 R CNN
F 1 "0u1" H 8685 3545 50  0000 R CNN
F 2 "Capacitors_SMD:C_0402" H 8838 3350 50  0001 C CNN
F 3 "~" H 8800 3500 50  0001 C CNN
	1    8800 3500
	-1   0    0    1   
$EndComp
$Comp
L Device:C C2
U 1 1 5B8CA376
P 1350 3250
F 0 "C2" H 1235 3204 50  0000 R CNN
F 1 "0u1" H 1235 3295 50  0000 R CNN
F 2 "Capacitors_SMD:C_0402" H 1388 3100 50  0001 C CNN
F 3 "~" H 1350 3250 50  0001 C CNN
	1    1350 3250
	-1   0    0    1   
$EndComp
$Comp
L Device:C C6
U 1 1 5B8CA482
P 1600 4000
F 0 "C6" H 1485 3954 50  0000 R CNN
F 1 "0u1" H 1575 4100 50  0000 R CNN
F 2 "Capacitors_SMD:C_0402" H 1638 3850 50  0001 C CNN
F 3 "~" H 1600 4000 50  0001 C CNN
	1    1600 4000
	-1   0    0    1   
$EndComp
$Comp
L Device:C C3
U 1 1 5B8CA98C
P 8550 3500
F 0 "C3" H 8435 3454 50  0000 R CNN
F 1 "1n" H 8435 3545 50  0000 R CNN
F 2 "Capacitors_SMD:C_0402" H 8588 3350 50  0001 C CNN
F 3 "~" H 8550 3500 50  0001 C CNN
	1    8550 3500
	-1   0    0    1   
$EndComp
Connection ~ 8550 3650
$Comp
L Device:C C7
U 1 1 5B8CAB3A
P 7250 4000
F 0 "C7" H 7135 3954 50  0000 R CNN
F 1 "1n" H 7135 4045 50  0000 R CNN
F 2 "Capacitors_SMD:C_0402" H 7288 3850 50  0001 C CNN
F 3 "~" H 7250 4000 50  0001 C CNN
	1    7250 4000
	-1   0    0    1   
$EndComp
Connection ~ 7250 4150
$Comp
L Device:C C5
U 1 1 5B8CAC71
P 1350 4000
F 0 "C5" H 1325 3900 50  0000 R CNN
F 1 "1n" H 1325 4100 50  0000 R CNN
F 2 "Capacitors_SMD:C_0402" H 1388 3850 50  0001 C CNN
F 3 "~" H 1350 4000 50  0001 C CNN
	1    1350 4000
	-1   0    0    1   
$EndComp
$Comp
L Device:C C1
U 1 1 5B8CAE2B
P 1100 3250
F 0 "C1" H 1075 3175 50  0000 R CNN
F 1 "1n" H 1075 3350 50  0000 R CNN
F 2 "Capacitors_SMD:C_0402" H 1138 3100 50  0001 C CNN
F 3 "~" H 1100 3250 50  0001 C CNN
	1    1100 3250
	-1   0    0    1   
$EndComp
$Comp
L Device:C C12
U 1 1 5B8CB297
P 5550 6250
F 0 "C12" H 5700 6175 50  0000 R CNN
F 1 "1n" H 5675 6325 50  0000 R CNN
F 2 "Capacitors_SMD:C_0402" H 5588 6100 50  0001 C CNN
F 3 "~" H 5550 6250 50  0001 C CNN
	1    5550 6250
	-1   0    0    1   
$EndComp
$Comp
L Device:C C14
U 1 1 5B8CB34F
P 6450 6250
F 0 "C14" H 6625 6175 50  0000 R CNN
F 1 "1n" H 6575 6325 50  0000 R CNN
F 2 "Capacitors_SMD:C_0402" H 6488 6100 50  0001 C CNN
F 3 "~" H 6450 6250 50  0001 C CNN
	1    6450 6250
	-1   0    0    1   
$EndComp
Connection ~ 6450 6400
Connection ~ 5550 6400
$Comp
L Device:C C13
U 1 1 5B8CB6BF
P 5800 6250
F 0 "C13" H 5950 6175 50  0000 R CNN
F 1 "1u" H 5925 6325 50  0000 R CNN
F 2 "Capacitors_SMD:C_0402" H 5838 6100 50  0001 C CNN
F 3 "~" H 5800 6250 50  0001 C CNN
	1    5800 6250
	-1   0    0    1   
$EndComp
$Comp
L Device:C C11
U 1 1 5B8CB850
P 5050 5750
F 0 "C11" H 5200 5675 50  0000 R CNN
F 1 "2u2" H 5225 5825 50  0000 R CNN
F 2 "Capacitors_SMD:C_0603" H 5088 5600 50  0001 C CNN
F 3 "~" H 5050 5750 50  0001 C CNN
	1    5050 5750
	-1   0    0    1   
$EndComp
$Comp
L Device:C C9
U 1 1 5B8CBC04
P 1800 4550
F 0 "C9" H 1950 4475 50  0000 R CNN
F 1 "10p" H 1975 4625 50  0000 R CNN
F 2 "Capacitors_SMD:C_0402" H 1838 4400 50  0001 C CNN
F 3 "~" H 1800 4550 50  0001 C CNN
	1    1800 4550
	-1   0    0    1   
$EndComp
$Comp
L Device:C C10
U 1 1 5B8CBE66
P 2400 4550
F 0 "C10" H 2550 4475 50  0000 R CNN
F 1 "10p" H 2575 4625 50  0000 R CNN
F 2 "Capacitors_SMD:C_0402" H 2438 4400 50  0001 C CNN
F 3 "~" H 2400 4550 50  0001 C CNN
	1    2400 4550
	-1   0    0    1   
$EndComp
$Comp
L Device:C C15
U 1 1 5B8CC01F
P 6700 6250
F 0 "C15" H 6600 6175 50  0000 R CNN
F 1 "10p" H 6600 6250 50  0000 R CNN
F 2 "Capacitors_SMD:C_0402" H 6738 6100 50  0001 C CNN
F 3 "~" H 6700 6250 50  0001 C CNN
	1    6700 6250
	-1   0    0    1   
$EndComp
$EndSCHEMATC
