EESchema Schematic File Version 4
LIBS:HamShieldMini1.2-cache
EELAYER 26 0
EELAYER END
$Descr A4 11693 8268
encoding utf-8
Sheet 4 4
Title "User Interface"
Date "2017-07-30"
Rev "1.1"
Comp "Enhanced Radio Devices"
Comment1 ""
Comment2 ""
Comment3 ""
Comment4 ""
$EndDescr
Text Notes 8350 5400 0    60   ~ 0
Fc = 5.3kHz
$Comp
L HamShieldMini1.2-rescue:GND-RESCUE-HAMShield04 #PWR068
U 1 1 52241CFD
P 9550 4100
F 0 "#PWR068" H 9550 4100 30  0001 C CNN
F 1 "GND" H 9550 4030 30  0001 C CNN
F 2 "" H 9550 4100 60  0001 C CNN
F 3 "" H 9550 4100 60  0001 C CNN
	1    9550 4100
	1    0    0    -1  
$EndComp
$Comp
L HamShieldMini1.2-rescue:GND-RESCUE-HAMShield04 #PWR069
U 1 1 52241CDB
P 9400 5150
F 0 "#PWR069" H 9400 5150 30  0001 C CNN
F 1 "GND" H 9400 5080 30  0001 C CNN
F 2 "" H 9400 5150 60  0001 C CNN
F 3 "" H 9400 5150 60  0001 C CNN
	1    9400 5150
	1    0    0    -1  
$EndComp
Text HLabel 5500 5650 0    60   Output ~ 0
MIC_IN
Text HLabel 4200 4600 0    60   Input ~ 0
AFOUT
Text HLabel 1050 2900 0    60   Input ~ 0
SCLK
Text HLabel 1050 2450 0    60   Input ~ 0
SDIO
Text HLabel 1050 7550 2    60   Input ~ 0
PDN
$Comp
L SparkFun:M04PTH JP3
U 1 1 5276A211
P 9350 3750
F 0 "JP3" H 9150 4080 50  0000 L BNN
F 1 "M04PTH" H 9150 3450 50  0000 L BNN
F 2 "mogar_modules_new:PinHeader_SMT_rightAngle_0.1inPitch_4pos" H 9350 3900 50  0001 C CNN
F 3 "" H 9350 3750 60  0001 C CNN
	1    9350 3750
	0    1    1    0   
$EndComp
Text Notes 9650 5100 0    60   ~ 0
TRRS = L, R, Gnd, Mic
$Comp
L HamShieldMini1.2-rescue:GND-RESCUE-HAMShield04 #PWR070
U 1 1 53EECFC0
P 4900 2700
F 0 "#PWR070" H 4900 2700 30  0001 C CNN
F 1 "GND" H 4900 2630 30  0001 C CNN
F 2 "" H 4900 2700 60  0001 C CNN
F 3 "" H 4900 2700 60  0001 C CNN
	1    4900 2700
	1    0    0    -1  
$EndComp
$Comp
L mogar_KiCAD:TRRS J2
U 1 1 524DB2B9
P 9750 4700
F 0 "J2" H 9500 4950 50  0000 C CNN
F 1 "SJ-43514-SMT-TR" H 9550 4500 50  0000 C CNN
F 2 "mogar_modules:SJ-43514-SMT-TR" H 9750 4700 60  0001 C CNN
F 3 "" H 9750 4700 60  0001 C CNN
	1    9750 4700
	-1   0    0    1   
$EndComp
Text Label 4300 1700 0    60   ~ 0
ARD_AUDIO_OUT
Text Label 8900 4200 2    60   ~ 0
ARD_AUDIO_OUT
Text Label 4250 1800 0    60   ~ 0
PWM_AUDIO_IN
Text Label 8550 5850 2    60   ~ 0
PWM_AUDIO_IN
$Comp
L SparkFun:CAP0603-CAP C41
U 1 1 54138EAF
P 7450 6050
F 0 "C41" H 7510 6165 50  0000 L BNN
F 1 "15n" H 7510 5965 50  0000 L BNN
F 2 "Capacitors_SMD:C_0402" H 7900 5900 50  0001 C CNN
F 3 "" H 7450 6050 60  0001 C CNN
	1    7450 6050
	-1   0    0    1   
$EndComp
$Comp
L HamShieldMini1.2-rescue:GND-RESCUE-HAMShield04 #PWR071
U 1 1 54138EB5
P 7450 6350
F 0 "#PWR071" H 7450 6350 30  0001 C CNN
F 1 "GND" H 7450 6280 30  0001 C CNN
F 2 "" H 7450 6350 60  0001 C CNN
F 3 "" H 7450 6350 60  0001 C CNN
	1    7450 6350
	1    0    0    -1  
$EndComp
Text Notes 6800 5800 0    60   ~ 0
Fc = 9.1kHz
$Comp
L mogar_KiCAD:VTX #VTX072
U 1 1 541395EB
P 7950 4950
F 0 "#VTX072" H 7950 5050 30  0001 C CNN
F 1 "VTX" H 7950 5050 30  0000 C CNN
F 2 "~" H 7950 4950 60  0000 C CNN
F 3 "~" H 7950 4950 60  0000 C CNN
	1    7950 4950
	1    0    0    -1  
$EndComp
$Comp
L HamShieldMini1.2-rescue:GND-RESCUE-HAMShield04 #PWR073
U 1 1 541398B9
P 8400 3800
F 0 "#PWR073" H 8400 3800 30  0001 C CNN
F 1 "GND" H 8400 3730 30  0001 C CNN
F 2 "" H 8400 3800 60  0001 C CNN
F 3 "" H 8400 3800 60  0001 C CNN
	1    8400 3800
	1    0    0    -1  
$EndComp
$Comp
L HamShieldMini1.2-rescue:GND-RESCUE-HAMShield04 #PWR074
U 1 1 542F57A6
P 6150 4200
F 0 "#PWR074" H 6150 4200 30  0001 C CNN
F 1 "GND" H 6150 4130 30  0001 C CNN
F 2 "" H 6150 4200 60  0001 C CNN
F 3 "" H 6150 4200 60  0001 C CNN
	1    6150 4200
	1    0    0    -1  
$EndComp
$Comp
L HamShieldMini1.2-rescue:GND-RESCUE-HAMShield04 #PWR075
U 1 1 542F5AA8
P 5700 5050
F 0 "#PWR075" H 5700 5050 30  0001 C CNN
F 1 "GND" H 5700 4980 30  0001 C CNN
F 2 "" H 5700 5050 60  0001 C CNN
F 3 "" H 5700 5050 60  0001 C CNN
	1    5700 5050
	1    0    0    -1  
$EndComp
$Comp
L mogar_KiCAD:AD8591 U3
U 1 1 542F5FA7
P 5700 4700
F 0 "U3" H 5900 4950 50  0000 C CNN
F 1 "AD8591" H 6000 4500 50  0000 C CNN
F 2 "mogar_modules_new:SOT23-6" H 5700 4700 60  0001 C CNN
F 3 "~" H 5700 4700 60  0000 C CNN
	1    5700 4700
	1    0    0    -1  
$EndComp
$Comp
L HamShieldMini1.2-rescue:GND-RESCUE-HAMShield04 #PWR076
U 1 1 54308B69
P 7350 5100
F 0 "#PWR076" H 7350 5100 30  0001 C CNN
F 1 "GND" H 7350 5030 30  0001 C CNN
F 2 "" H 7350 5100 60  0001 C CNN
F 3 "" H 7350 5100 60  0001 C CNN
	1    7350 5100
	1    0    0    -1  
$EndComp
$Comp
L power:VCC #PWR077
U 1 1 546B7BAD
P 850 6600
F 0 "#PWR077" H 850 6700 30  0001 C CNN
F 1 "VCC" H 850 6700 30  0000 C CNN
F 2 "" H 850 6600 60  0000 C CNN
F 3 "" H 850 6600 60  0000 C CNN
	1    850  6600
	1    0    0    -1  
$EndComp
$Comp
L HamShieldMini1.2-rescue:GND-RESCUE-HAMShield04 #PWR078
U 1 1 553EDE3F
P 5150 5350
F 0 "#PWR078" H 5150 5350 30  0001 C CNN
F 1 "GND" H 5150 5280 30  0001 C CNN
F 2 "" H 5150 5350 60  0001 C CNN
F 3 "" H 5150 5350 60  0001 C CNN
	1    5150 5350
	1    0    0    -1  
$EndComp
Text Notes 4700 3350 0    60   ~ 0
Gain = (Rf/Ri) = 2
$Comp
L power:VCC #PWR079
U 1 1 5605E767
P 5700 4050
F 0 "#PWR079" H 5700 4150 30  0001 C CNN
F 1 "VCC" H 5700 4150 30  0000 C CNN
F 2 "" H 5700 4050 60  0000 C CNN
F 3 "" H 5700 4050 60  0000 C CNN
	1    5700 4050
	1    0    0    -1  
$EndComp
$Comp
L power:VCC #PWR080
U 1 1 5605EC9C
P 5900 5100
F 0 "#PWR080" H 5900 5200 30  0001 C CNN
F 1 "VCC" H 5900 5200 30  0000 C CNN
F 2 "" H 5900 5100 60  0000 C CNN
F 3 "" H 5900 5100 60  0000 C CNN
	1    5900 5100
	1    0    0    -1  
$EndComp
$Comp
L power:VCC #PWR081
U 1 1 5605F11B
P 7900 3600
F 0 "#PWR081" H 7900 3700 30  0001 C CNN
F 1 "VCC" H 7900 3700 30  0000 C CNN
F 2 "" H 7900 3600 60  0000 C CNN
F 3 "" H 7900 3600 60  0000 C CNN
	1    7900 3600
	1    0    0    -1  
$EndComp
$Comp
L Device:Q_NMOS_GSD Q5
U 1 1 56B23FFE
P 2300 1900
F 0 "Q5" V 2600 1800 50  0000 R CNN
F 1 "BSS138" V 2500 2000 50  0000 R CNN
F 2 "TO_SOT_Packages_SMD:SOT-23" H 2500 2000 29  0001 C CNN
F 3 "" H 2300 1900 60  0000 C CNN
	1    2300 1900
	0    1    1    0   
$EndComp
$Comp
L power:VCC #PWR082
U 1 1 56B2487A
P 1300 1450
F 0 "#PWR082" H 1300 1550 30  0001 C CNN
F 1 "VCC" H 1300 1550 30  0000 C CNN
F 2 "" H 1300 1450 60  0000 C CNN
F 3 "" H 1300 1450 60  0000 C CNN
	1    1300 1450
	1    0    0    -1  
$EndComp
$Comp
L power:VCC #PWR083
U 1 1 56B2548C
P 2300 1650
F 0 "#PWR083" H 2300 1750 30  0001 C CNN
F 1 "VCC" H 2300 1750 30  0000 C CNN
F 2 "" H 2300 1650 60  0000 C CNN
F 3 "" H 2300 1650 60  0000 C CNN
	1    2300 1650
	1    0    0    -1  
$EndComp
$Comp
L power:VCC #PWR084
U 1 1 56B25C2E
P 2600 1650
F 0 "#PWR084" H 2600 1750 30  0001 C CNN
F 1 "VCC" H 2600 1750 30  0000 C CNN
F 2 "" H 2600 1650 60  0000 C CNN
F 3 "" H 2600 1650 60  0000 C CNN
	1    2600 1650
	1    0    0    -1  
$EndComp
$Comp
L Device:Q_NMOS_GSD Q6
U 1 1 56B281F6
P 2600 2350
F 0 "Q6" V 2900 2250 50  0000 R CNN
F 1 "BSS138" V 2800 2450 50  0000 R CNN
F 2 "TO_SOT_Packages_SMD:SOT-23" H 2800 2450 29  0001 C CNN
F 3 "" H 2600 2350 60  0000 C CNN
	1    2600 2350
	0    1    1    0   
$EndComp
$Comp
L Device:Q_NMOS_GSD Q7
U 1 1 56B2826A
P 2900 2800
F 0 "Q7" V 3200 2700 50  0000 R CNN
F 1 "BSS138" V 3100 2900 50  0000 R CNN
F 2 "TO_SOT_Packages_SMD:SOT-23" H 3100 2900 29  0001 C CNN
F 3 "" H 2900 2800 60  0000 C CNN
	1    2900 2800
	0    1    1    0   
$EndComp
$Comp
L power:VCC #PWR085
U 1 1 56B282DF
P 2900 1650
F 0 "#PWR085" H 2900 1750 30  0001 C CNN
F 1 "VCC" H 2900 1750 30  0000 C CNN
F 2 "" H 2900 1650 60  0000 C CNN
F 3 "" H 2900 1650 60  0000 C CNN
	1    2900 1650
	1    0    0    -1  
$EndComp
Text HLabel 1050 2000 0    60   Input ~ 0
nSEN
$Comp
L power:VCC #PWR086
U 1 1 56B2DB51
P 1700 6700
F 0 "#PWR086" H 1700 6800 30  0001 C CNN
F 1 "VCC" H 1700 6800 30  0000 C CNN
F 2 "" H 1700 6700 60  0000 C CNN
F 3 "" H 1700 6700 60  0000 C CNN
	1    1700 6700
	1    0    0    -1  
$EndComp
Text HLabel 2150 7550 2    60   Input ~ 0
MODE
$Comp
L HamShieldMini1.2-rescue:GND-RESCUE-HAMShield04 #PWR087
U 1 1 59177EAB
P 10150 2450
F 0 "#PWR087" H 10150 2450 30  0001 C CNN
F 1 "GND" H 10150 2380 30  0001 C CNN
F 2 "" H 10150 2450 60  0001 C CNN
F 3 "" H 10150 2450 60  0001 C CNN
	1    10150 2450
	1    0    0    -1  
$EndComp
$Comp
L HamShieldMini1.2-rescue:GND-RESCUE-HAMShield04 #PWR088
U 1 1 591783FF
P 10550 2450
F 0 "#PWR088" H 10550 2450 30  0001 C CNN
F 1 "GND" H 10550 2380 30  0001 C CNN
F 2 "" H 10550 2450 60  0001 C CNN
F 3 "" H 10550 2450 60  0001 C CNN
	1    10550 2450
	1    0    0    -1  
$EndComp
$Comp
L power:VCC #PWR089
U 1 1 591789EC
P 10550 1400
F 0 "#PWR089" H 10550 1500 30  0001 C CNN
F 1 "VCC" H 10550 1500 30  0000 C CNN
F 2 "" H 10550 1400 60  0000 C CNN
F 3 "" H 10550 1400 60  0000 C CNN
	1    10550 1400
	1    0    0    -1  
$EndComp
Text Notes 10800 2350 1    60   ~ 0
Power LED
Text Notes 10000 2350 1    60   ~ 0
TX LED
$Comp
L mogar_KiCAD:VTX #VTX090
U 1 1 59179481
P 10150 1350
F 0 "#VTX090" H 10150 1450 30  0001 C CNN
F 1 "VTX" H 10150 1450 30  0000 C CNN
F 2 "" H 10150 1350 60  0000 C CNN
F 3 "" H 10150 1350 60  0000 C CNN
	1    10150 1350
	1    0    0    -1  
$EndComp
$Comp
L power:VCC #PWR091
U 1 1 593E80CE
P 4700 4850
F 0 "#PWR091" H 4700 4950 30  0001 C CNN
F 1 "VCC" H 4700 4950 30  0000 C CNN
F 2 "" H 4700 4850 60  0000 C CNN
F 3 "" H 4700 4850 60  0000 C CNN
	1    4700 4850
	1    0    0    -1  
$EndComp
$Comp
L HamShieldMini1.2-rescue:GND-RESCUE-HAMShield04 #PWR094
U 1 1 5A94ADD3
P 4150 1550
F 0 "#PWR094" H 4150 1550 30  0001 C CNN
F 1 "GND" H 4150 1480 30  0001 C CNN
F 2 "" H 4150 1550 60  0001 C CNN
F 3 "" H 4150 1550 60  0001 C CNN
	1    4150 1550
	1    0    0    -1  
$EndComp
$Comp
L HamShieldMini1.2-rescue:GND-RESCUE-HAMShield04 #PWR095
U 1 1 5A94AE53
P 4500 1550
F 0 "#PWR095" H 4500 1550 30  0001 C CNN
F 1 "GND" H 4500 1480 30  0001 C CNN
F 2 "" H 4500 1550 60  0001 C CNN
F 3 "" H 4500 1550 60  0001 C CNN
	1    4500 1550
	1    0    0    -1  
$EndComp
Wire Wire Line
	9400 4800 9400 5150
Wire Wire Line
	8200 5450 8950 5450
Wire Wire Line
	5850 5450 7900 5450
Wire Wire Line
	8950 5450 8950 5000
Wire Wire Line
	9550 4100 9550 3950
Wire Wire Line
	8450 4700 9350 4700
Connection ~ 9350 4700
Wire Wire Line
	4900 2200 4900 2700
Wire Wire Line
	850  6600 850  7550
Wire Wire Line
	8950 4900 9250 4900
Wire Wire Line
	9250 3950 9250 4900
Wire Wire Line
	9350 4700 9350 3950
Wire Wire Line
	9550 4600 9450 4600
Wire Wire Line
	9450 4600 9450 3950
Wire Wire Line
	850  7550 1050 7550
Wire Wire Line
	9550 4800 9400 4800
Connection ~ 9250 4900
Wire Wire Line
	7950 4950 7950 5000
Wire Wire Line
	7800 5000 7950 5000
Wire Wire Line
	8500 5000 8950 5000
Connection ~ 8950 5000
Wire Wire Line
	4300 1700 5100 1700
Wire Wire Line
	7450 6350 7450 6250
Wire Wire Line
	7450 5950 7450 5850
Wire Wire Line
	7850 5850 8550 5850
Connection ~ 7450 5850
Wire Wire Line
	7900 4100 7900 4200
Connection ~ 7900 4200
Wire Wire Line
	8200 4100 8200 4200
Connection ~ 8200 4200
Wire Wire Line
	8200 3600 8400 3600
Wire Wire Line
	8400 3600 8400 3800
Wire Wire Line
	7900 3600 7900 3800
Wire Wire Line
	7400 4200 7250 4200
Wire Wire Line
	7250 4200 7250 4700
Connection ~ 7250 4700
Wire Wire Line
	7700 4200 7900 4200
Connection ~ 5700 4100
Wire Wire Line
	5150 4800 5500 4800
Wire Wire Line
	5150 4600 5200 4600
Wire Wire Line
	5200 3600 5200 4600
Wire Wire Line
	6850 3600 6850 4700
Connection ~ 6850 4700
Wire Wire Line
	5700 4100 5800 4100
Wire Wire Line
	6100 4100 6150 4100
Wire Wire Line
	6150 4100 6150 4200
Wire Wire Line
	5700 5050 5700 4950
Wire Wire Line
	5800 4900 5800 5200
Wire Wire Line
	5800 5200 5900 5200
Wire Wire Line
	5900 5200 5900 5100
Wire Wire Line
	6250 4700 6100 4700
Wire Wire Line
	7350 5100 7350 5000
Wire Wire Line
	7350 5000 7500 5000
Connection ~ 7950 5000
Wire Wire Line
	5850 5850 6150 5850
Wire Wire Line
	5500 5650 5850 5650
Connection ~ 5850 5650
Wire Wire Line
	5700 4050 5700 4100
Wire Wire Line
	6850 3600 5900 3600
Wire Wire Line
	6450 5850 7450 5850
Wire Wire Line
	5850 5450 5850 5650
Wire Wire Line
	1300 1450 1300 1550
Connection ~ 1300 1550
Wire Wire Line
	1300 1550 1550 1550
Wire Wire Line
	1800 1550 1800 1600
Wire Wire Line
	1550 1600 1550 1550
Connection ~ 1550 1550
Wire Wire Line
	2100 2000 1300 2000
Wire Wire Line
	1300 1900 1300 2000
Connection ~ 1300 2000
Wire Wire Line
	2300 1650 2300 1700
Wire Wire Line
	1050 2450 1550 2450
Wire Wire Line
	1550 1900 1550 2450
Connection ~ 1550 2450
Wire Wire Line
	2600 1650 2600 2150
Wire Wire Line
	3650 2900 3650 1900
Wire Wire Line
	3100 2900 3650 2900
Wire Wire Line
	3400 1650 3400 2000
Wire Wire Line
	3400 2450 2800 2450
Wire Wire Line
	2500 2000 3150 2000
Wire Wire Line
	3150 1650 3150 2000
Wire Wire Line
	2900 2600 2900 1650
Wire Wire Line
	1800 1900 1800 2900
Connection ~ 1800 2900
Wire Wire Line
	3950 1000 3950 1050
Wire Wire Line
	3150 1250 3150 1300
Wire Wire Line
	3150 1300 3400 1300
Wire Wire Line
	3650 1300 3650 1350
Connection ~ 3150 1300
Wire Wire Line
	3400 1350 3400 1300
Connection ~ 3400 1300
Wire Wire Line
	1700 7550 2050 7550
Wire Wire Line
	2700 2900 1800 2900
Wire Wire Line
	10150 2300 10150 2450
Wire Wire Line
	10150 2000 10150 1850
Wire Wire Line
	10550 2300 10550 2450
Wire Wire Line
	10550 2000 10550 1850
Wire Wire Line
	10550 1400 10550 1550
Wire Wire Line
	10150 1350 10150 1550
Wire Wire Line
	4400 4600 4200 4600
Wire Wire Line
	4850 4600 4700 4600
Connection ~ 5200 4600
Wire Wire Line
	5150 4900 5100 4900
Connection ~ 5150 4900
Wire Wire Line
	5150 5350 5150 5300
Wire Wire Line
	5150 4800 5150 4900
Wire Wire Line
	4700 4850 4700 4900
Wire Wire Line
	4700 4900 4800 4900
Wire Wire Line
	4250 1800 5100 1800
Wire Wire Line
	4500 1550 4500 1450
Wire Wire Line
	4150 1450 4150 1550
Wire Wire Line
	3950 1050 4150 1050
Wire Wire Line
	4500 1050 4500 1150
Connection ~ 3950 1050
Wire Wire Line
	4150 1150 4150 1050
Connection ~ 4150 1050
Wire Wire Line
	2050 7400 2050 7550
Connection ~ 2050 7550
Wire Wire Line
	1700 7400 1700 7550
Wire Wire Line
	1700 7100 1700 6700
$Comp
L HamShieldMini1.2-rescue:GND-RESCUE-HAMShield04 #PWR096
U 1 1 5A95797D
P 2350 7100
F 0 "#PWR096" H 2350 7100 30  0001 C CNN
F 1 "GND" H 2350 7030 30  0001 C CNN
F 2 "" H 2350 7100 60  0001 C CNN
F 3 "" H 2350 7100 60  0001 C CNN
	1    2350 7100
	1    0    0    -1  
$EndComp
Wire Wire Line
	2050 7100 2050 6950
Wire Wire Line
	2050 6950 2350 6950
Wire Wire Line
	2350 6950 2350 7100
Wire Wire Line
	5100 2200 4900 2200
Wire Wire Line
	5100 2000 3400 2000
Connection ~ 3400 2000
Wire Wire Line
	3950 2300 5100 2300
Wire Wire Line
	5100 1900 3650 1900
Connection ~ 3650 1900
Wire Wire Line
	3150 2100 5100 2100
Connection ~ 3150 2000
$Comp
L mogar_KiCAD:VIN #VIN09
U 1 1 5B5CC135
P 3950 1000
F 0 "#VIN09" H 3950 1100 30  0001 C CNN
F 1 "VIN" H 3950 1100 30  0000 C CNN
F 2 "" H 3950 1000 60  0000 C CNN
F 3 "" H 3950 1000 60  0000 C CNN
	1    3950 1000
	1    0    0    -1  
$EndComp
$Comp
L mogar_KiCAD:VIN #VIN08
U 1 1 5B5CC283
P 3150 1250
F 0 "#VIN08" H 3150 1350 30  0001 C CNN
F 1 "VIN" H 3150 1350 30  0000 C CNN
F 2 "" H 3150 1250 60  0000 C CNN
F 3 "" H 3150 1250 60  0000 C CNN
	1    3150 1250
	1    0    0    -1  
$EndComp
Text Notes 4025 825  0    60   ~ 0
Vin must be between 3.3V and 5V
Wire Wire Line
	9350 4700 9550 4700
Wire Wire Line
	9250 4900 9550 4900
Wire Wire Line
	8950 5000 8950 4900
Wire Wire Line
	7450 5850 7550 5850
Wire Wire Line
	7900 4200 8200 4200
Wire Wire Line
	8200 4200 8900 4200
Wire Wire Line
	7250 4700 8150 4700
Wire Wire Line
	5700 4100 5700 4450
Wire Wire Line
	6850 4700 7250 4700
Wire Wire Line
	7950 5000 8200 5000
Wire Wire Line
	5850 5650 5850 5850
Wire Wire Line
	1300 1550 1300 1600
Wire Wire Line
	1550 1550 1800 1550
Wire Wire Line
	1300 2000 1050 2000
Wire Wire Line
	1550 2450 2400 2450
Wire Wire Line
	1800 2900 1050 2900
Wire Wire Line
	3150 1300 3150 1350
Wire Wire Line
	3400 1300 3650 1300
Wire Wire Line
	5200 4600 5500 4600
Wire Wire Line
	5150 4900 5150 5000
Wire Wire Line
	3950 1050 3950 2300
Wire Wire Line
	4150 1050 4500 1050
Wire Wire Line
	2050 7550 2150 7550
Wire Wire Line
	3400 2000 3400 2450
Wire Wire Line
	3650 1900 3650 1650
Wire Wire Line
	3150 2000 3150 2100
$Comp
L Device:R R1
U 1 1 5B85C80B
P 1300 1750
F 0 "R1" H 1350 1800 50  0000 L CNN
F 1 "10k" H 1350 1700 50  0000 L CNN
F 2 "Resistors_SMD:R_0402" V 1230 1750 50  0001 C CNN
F 3 "~" H 1300 1750 50  0001 C CNN
	1    1300 1750
	1    0    0    -1  
$EndComp
$Comp
L Device:R R14
U 1 1 5B85CBBD
P 1550 1750
F 0 "R14" H 1600 1800 50  0000 L CNN
F 1 "10k" H 1600 1700 50  0000 L CNN
F 2 "Resistors_SMD:R_0402" V 1480 1750 50  0001 C CNN
F 3 "~" H 1550 1750 50  0001 C CNN
	1    1550 1750
	1    0    0    -1  
$EndComp
$Comp
L Device:R R15
U 1 1 5B85CCA6
P 1800 1750
F 0 "R15" H 1870 1796 50  0000 L CNN
F 1 "10k" H 1870 1705 50  0000 L CNN
F 2 "Resistors_SMD:R_0402" V 1730 1750 50  0001 C CNN
F 3 "~" H 1800 1750 50  0001 C CNN
	1    1800 1750
	1    0    0    -1  
$EndComp
$Comp
L Device:R R16
U 1 1 5B86289A
P 3150 1500
F 0 "R16" H 3200 1550 50  0000 L CNN
F 1 "10k" H 3200 1450 50  0000 L CNN
F 2 "Resistors_SMD:R_0402" V 3080 1500 50  0001 C CNN
F 3 "~" H 3150 1500 50  0001 C CNN
	1    3150 1500
	1    0    0    -1  
$EndComp
$Comp
L Device:R R37
U 1 1 5B8628A1
P 3400 1500
F 0 "R37" H 3450 1550 50  0000 L CNN
F 1 "10k" H 3450 1450 50  0000 L CNN
F 2 "Resistors_SMD:R_0402" V 3330 1500 50  0001 C CNN
F 3 "~" H 3400 1500 50  0001 C CNN
	1    3400 1500
	1    0    0    -1  
$EndComp
$Comp
L Device:R R36
U 1 1 5B8628A8
P 3650 1500
F 0 "R36" H 3720 1546 50  0000 L CNN
F 1 "10k" H 3720 1455 50  0000 L CNN
F 2 "Resistors_SMD:R_0402" V 3580 1500 50  0001 C CNN
F 3 "~" H 3650 1500 50  0001 C CNN
	1    3650 1500
	1    0    0    -1  
$EndComp
$Comp
L conn:Conn_01x07 P2
U 1 1 5B872E80
P 5300 2000
F 0 "P2" H 5380 2042 50  0000 L CNN
F 1 "Conn_01x07" H 5380 1951 50  0000 L CNN
F 2 "Pin_Headers:Pin_Header_Straight_1x07_Pitch2.54mm" H 5300 2000 50  0001 C CNN
F 3 "~" H 5300 2000 50  0001 C CNN
	1    5300 2000
	1    0    0    -1  
$EndComp
$Comp
L Device:C C18
U 1 1 5B8731EF
P 4150 1300
F 0 "C18" H 4265 1346 50  0000 L CNN
F 1 "47u" H 4265 1255 50  0000 L CNN
F 2 "mogar_modules_new:C1210P" H 4188 1150 50  0001 C CNN
F 3 "~" H 4150 1300 50  0001 C CNN
	1    4150 1300
	1    0    0    -1  
$EndComp
$Comp
L Device:C C21
U 1 1 5B873265
P 4500 1300
F 0 "C21" H 4615 1346 50  0000 L CNN
F 1 "2u2" H 4615 1255 50  0000 L CNN
F 2 "Capacitors_SMD:C_0603" H 4538 1150 50  0001 C CNN
F 3 "~" H 4500 1300 50  0001 C CNN
	1    4500 1300
	1    0    0    -1  
$EndComp
$Comp
L Device:R R20
U 1 1 5B8739D3
P 10150 1700
F 0 "R20" H 10220 1746 50  0000 L CNN
F 1 "330" H 10220 1655 50  0000 L CNN
F 2 "Resistors_SMD:R_0402" V 10080 1700 50  0001 C CNN
F 3 "~" H 10150 1700 50  0001 C CNN
	1    10150 1700
	1    0    0    -1  
$EndComp
$Comp
L Device:R R22
U 1 1 5B873CE0
P 10550 1700
F 0 "R22" H 10620 1746 50  0000 L CNN
F 1 "330" H 10620 1655 50  0000 L CNN
F 2 "Resistors_SMD:R_0402" V 10480 1700 50  0001 C CNN
F 3 "~" H 10550 1700 50  0001 C CNN
	1    10550 1700
	1    0    0    -1  
$EndComp
$Comp
L Device:LED D2
U 1 1 5B8793EF
P 10150 2150
F 0 "D2" V 10188 2033 50  0000 R CNN
F 1 "LED" V 10097 2033 50  0000 R CNN
F 2 "Diodes_SMD:D_0603" H 10150 2150 50  0001 C CNN
F 3 "~" H 10150 2150 50  0001 C CNN
	1    10150 2150
	0    -1   -1   0   
$EndComp
$Comp
L Device:LED D3
U 1 1 5B879793
P 10550 2150
F 0 "D3" V 10588 2033 50  0000 R CNN
F 1 "LED" V 10497 2033 50  0000 R CNN
F 2 "Diodes_SMD:D_0603" H 10550 2150 50  0001 C CNN
F 3 "~" H 10550 2150 50  0001 C CNN
	1    10550 2150
	0    -1   -1   0   
$EndComp
$Comp
L Device:R R2
U 1 1 5B879CE6
P 1700 7250
F 0 "R2" H 1770 7296 50  0000 L CNN
F 1 "0" H 1770 7205 50  0000 L CNN
F 2 "Resistors_SMD:R_0402" V 1630 7250 50  0001 C CNN
F 3 "~" H 1700 7250 50  0001 C CNN
	1    1700 7250
	1    0    0    -1  
$EndComp
$Comp
L Device:R R3
U 1 1 5B87A170
P 2050 7250
F 0 "R3" H 2120 7296 50  0000 L CNN
F 1 "DNP" H 2120 7205 50  0000 L CNN
F 2 "Resistors_SMD:R_0402" V 1980 7250 50  0001 C CNN
F 3 "~" H 2050 7250 50  0001 C CNN
	1    2050 7250
	1    0    0    -1  
$EndComp
$Comp
L Device:R R13
U 1 1 5B87FC6A
P 5750 3600
F 0 "R13" V 5543 3600 50  0000 C CNN
F 1 "10k" V 5634 3600 50  0000 C CNN
F 2 "Resistors_SMD:R_0402" V 5680 3600 50  0001 C CNN
F 3 "~" H 5750 3600 50  0001 C CNN
	1    5750 3600
	0    1    1    0   
$EndComp
$Comp
L Device:R R6
U 1 1 5B87FD5C
P 5000 4600
F 0 "R6" V 4793 4600 50  0000 C CNN
F 1 "10k" V 4884 4600 50  0000 C CNN
F 2 "Resistors_SMD:R_0402" V 4930 4600 50  0001 C CNN
F 3 "~" H 5000 4600 50  0001 C CNN
	1    5000 4600
	0    1    1    0   
$EndComp
$Comp
L Device:R R12
U 1 1 5B87FDE6
P 4950 4900
F 0 "R12" V 4875 4825 50  0000 C CNN
F 1 "10k" V 4875 5000 50  0000 C CNN
F 2 "Resistors_SMD:R_0402" V 4880 4900 50  0001 C CNN
F 3 "~" H 4950 4900 50  0001 C CNN
	1    4950 4900
	0    1    1    0   
$EndComp
$Comp
L Device:R R7
U 1 1 5B87FE6C
P 5150 5150
F 0 "R7" H 5220 5196 50  0000 L CNN
F 1 "10k" H 5220 5105 50  0000 L CNN
F 2 "Resistors_SMD:R_0402" V 5080 5150 50  0001 C CNN
F 3 "~" H 5150 5150 50  0001 C CNN
	1    5150 5150
	1    0    0    -1  
$EndComp
$Comp
L Device:R R31
U 1 1 5B87FEF8
P 8350 5000
F 0 "R31" V 8275 4925 50  0000 C CNN
F 1 "2k" V 8275 5100 50  0000 C CNN
F 2 "Resistors_SMD:R_0402" V 8280 5000 50  0001 C CNN
F 3 "~" H 8350 5000 50  0001 C CNN
	1    8350 5000
	0    1    1    0   
$EndComp
$Comp
L Device:R R28
U 1 1 5B87FFF2
P 8200 3950
F 0 "R28" H 8270 3996 50  0000 L CNN
F 1 "100k" H 8270 3905 50  0000 L CNN
F 2 "Resistors_SMD:R_0402" V 8130 3950 50  0001 C CNN
F 3 "~" H 8200 3950 50  0001 C CNN
	1    8200 3950
	1    0    0    -1  
$EndComp
$Comp
L Device:R R27
U 1 1 5B880096
P 7900 3950
F 0 "R27" H 7970 3996 50  0000 L CNN
F 1 "100k" H 7970 3905 50  0000 L CNN
F 2 "Resistors_SMD:R_0402" V 7830 3950 50  0001 C CNN
F 3 "~" H 7900 3950 50  0001 C CNN
	1    7900 3950
	1    0    0    -1  
$EndComp
$Comp
L Device:C C47
U 1 1 5B89643B
P 4550 4600
F 0 "C47" V 4298 4600 50  0000 C CNN
F 1 "2u2" V 4389 4600 50  0000 C CNN
F 2 "Capacitors_SMD:C_0603" H 4588 4450 50  0001 C CNN
F 3 "~" H 4550 4600 50  0001 C CNN
	1    4550 4600
	0    1    1    0   
$EndComp
Wire Wire Line
	5200 3600 5600 3600
$Comp
L Device:C C42
U 1 1 5B89C3F5
P 7550 4200
F 0 "C42" V 7298 4200 50  0000 C CNN
F 1 "2u2" V 7389 4200 50  0000 C CNN
F 2 "Capacitors_SMD:C_0603" H 7588 4050 50  0001 C CNN
F 3 "~" H 7550 4200 50  0001 C CNN
	1    7550 4200
	0    1    1    0   
$EndComp
Wire Wire Line
	8200 3600 8200 3800
$Comp
L Device:C C94
U 1 1 5B8A76CF
P 8050 5450
F 0 "C94" V 7798 5450 50  0000 C CNN
F 1 "2u2" V 7889 5450 50  0000 C CNN
F 2 "Capacitors_SMD:C_0603" H 8088 5300 50  0001 C CNN
F 3 "~" H 8050 5450 50  0001 C CNN
	1    8050 5450
	0    1    1    0   
$EndComp
$Comp
L Device:C C40
U 1 1 5B8A79DB
P 6300 5850
F 0 "C40" V 6048 5850 50  0000 C CNN
F 1 "2u2" V 6139 5850 50  0000 C CNN
F 2 "Capacitors_SMD:C_0603" H 6338 5700 50  0001 C CNN
F 3 "~" H 6300 5850 50  0001 C CNN
	1    6300 5850
	0    1    1    0   
$EndComp
$Comp
L Device:C C43
U 1 1 5B8A800F
P 7650 5000
F 0 "C43" V 7398 5000 50  0000 C CNN
F 1 "0u1" V 7489 5000 50  0000 C CNN
F 2 "Capacitors_SMD:C_0402" H 7688 4850 50  0001 C CNN
F 3 "~" H 7650 5000 50  0001 C CNN
	1    7650 5000
	0    1    1    0   
$EndComp
$Comp
L Device:C C39
U 1 1 5B8AD846
P 5950 4100
F 0 "C39" V 5698 4100 50  0000 C CNN
F 1 "0u1" V 5789 4100 50  0000 C CNN
F 2 "Capacitors_SMD:C_0402" H 5988 3950 50  0001 C CNN
F 3 "~" H 5950 4100 50  0001 C CNN
	1    5950 4100
	0    1    1    0   
$EndComp
$Comp
L Device:C C93
U 1 1 5B8ADAB0
P 8300 4700
F 0 "C93" V 8552 4700 50  0000 C CNN
F 1 "47u" V 8461 4700 50  0000 C CNN
F 2 "mogar_modules_new:C1210P" H 8338 4550 50  0001 C CNN
F 3 "~" H 8300 4700 50  0001 C CNN
	1    8300 4700
	0    -1   -1   0   
$EndComp
$Comp
L Device:R R24
U 1 1 5B8B89A0
P 7700 5850
F 0 "R24" V 7493 5850 50  0000 C CNN
F 1 "1.47k" V 7584 5850 50  0000 C CNN
F 2 "Resistors_SMD:R_0402" V 7630 5850 50  0001 C CNN
F 3 "~" H 7700 5850 50  0001 C CNN
	1    7700 5850
	0    1    1    0   
$EndComp
$Comp
L Device:R R23
U 1 1 5B8BE163
P 6400 4700
F 0 "R23" V 6193 4700 50  0000 C CNN
F 1 "13.3" V 6284 4700 50  0000 C CNN
F 2 "Resistors_SMD:R_0402" V 6330 4700 50  0001 C CNN
F 3 "~" H 6400 4700 50  0001 C CNN
	1    6400 4700
	0    1    1    0   
$EndComp
Wire Wire Line
	6550 4700 6850 4700
$EndSCHEMATC
